%YAML 1.1
%TAG !u! tag:unity3d.com,2011:
--- !u!74 &7400000
AnimationClip:
  m_ObjectHideFlags: 0
  m_CorrespondingSourceObject: {fileID: 0}
  m_PrefabInstance: {fileID: 0}
  m_PrefabAsset: {fileID: 0}
  m_Name: RUFM_Long_Versus_Top_Blue_Range_Win_Low_Red_Range_Win_Img_NPC
  serializedVersion: 6
  m_Legacy: 0
  m_Compressed: 0
  m_UseHighQualityCurve: 1
  m_RotationCurves: []
  m_CompressedRotationCurves: []
  m_EulerCurves: []
  m_PositionCurves: []
  m_ScaleCurves: []
  m_FloatCurves:
  - curve:
      serializedVersion: 2
      m_Curve:
      - serializedVersion: 3
        time: 0
        value: 0
        inSlope: Infinity
        outSlope: Infinity
        tangentMode: 103
        weightedMode: 0
        inWeight: 0
        outWeight: 0
      - serializedVersion: 3
        time: 0.56666666
        value: 1
        inSlope: Infinity
        outSlope: Infinity
        tangentMode: 103
        weightedMode: 0
        inWeight: 0
        outWeight: 0
      - serializedVersion: 3
        time: 2.7333333
        value: 1
        inSlope: Infinity
        outSlope: Infinity
        tangentMode: 103
        weightedMode: 0
        inWeight: 0
        outWeight: 0
      - serializedVersion: 3
        time: 4.866667
        value: 1
        inSlope: Infinity
        outSlope: Infinity
        tangentMode: 103
        weightedMode: 0
        inWeight: 0
        outWeight: 0
      - serializedVersion: 3
        time: 6.133333
        value: 0
        inSlope: Infinity
        outSlope: Infinity
        tangentMode: 103
        weightedMode: 0
        inWeight: 0
        outWeight: 0
      m_PreInfinity: 2
      m_PostInfinity: 2
      m_RotationOrder: 4
    attribute: m_Enabled
    path: Low_Left_Score_3x3_Txt
    classID: 114
    script: {fileID: 708705254, guid: f70555f144d8491a825f0804e09c671c, type: 3}
  - curve:
      serializedVersion: 2
      m_Curve:
      - serializedVersion: 3
        time: 0
        value: 0
        inSlope: Infinity
        outSlope: Infinity
        tangentMode: 103
        weightedMode: 0
        inWeight: 0
        outWeight: 0
      - serializedVersion: 3
        time: 0.56666666
        value: 1
        inSlope: Infinity
        outSlope: Infinity
        tangentMode: 103
        weightedMode: 0
        inWeight: 0
        outWeight: 0
      - serializedVersion: 3
        time: 2.7333333
        value: 1
        inSlope: Infinity
        outSlope: Infinity
        tangentMode: 103
        weightedMode: 0
        inWeight: 0
        outWeight: 0
      - serializedVersion: 3
        time: 4.866667
        value: 0
        inSlope: Infinity
        outSlope: Infinity
        tangentMode: 103
        weightedMode: 0
        inWeight: 0
        outWeight: 0
      - serializedVersion: 3
        time: 6.133333
        value: 0
        inSlope: Infinity
        outSlope: Infinity
        tangentMode: 103
        weightedMode: 0
        inWeight: 0
        outWeight: 0
      m_PreInfinity: 2
      m_PostInfinity: 2
      m_RotationOrder: 4
    attribute: m_Enabled
    path: Low_Right_Score_3x3_Txt
    classID: 114
    script: {fileID: 708705254, guid: f70555f144d8491a825f0804e09c671c, type: 3}
  - curve:
      serializedVersion: 2
      m_Curve:
      - serializedVersion: 3
        time: 0
        value: 0
        inSlope: Infinity
        outSlope: Infinity
        tangentMode: 103
        weightedMode: 0
        inWeight: 0
        outWeight: 0
      - serializedVersion: 3
        time: 7.8333335
        value: 1
        inSlope: Infinity
        outSlope: Infinity
        tangentMode: 103
        weightedMode: 0
        inWeight: 0
        outWeight: 0
      - serializedVersion: 3
        time: 8.633333
        value: 0
        inSlope: Infinity
        outSlope: Infinity
        tangentMode: 103
        weightedMode: 0
        inWeight: 0
        outWeight: 0
      m_PreInfinity: 2
      m_PostInfinity: 2
      m_RotationOrder: 4
    attribute: m_Enabled
    path: Top_Left_Score_3_Txt
    classID: 114
    script: {fileID: 708705254, guid: f70555f144d8491a825f0804e09c671c, type: 3}
  - curve:
      serializedVersion: 2
      m_Curve:
      - serializedVersion: 3
        time: 0
        value: 1
        inSlope: 0
        outSlope: 0
        tangentMode: 136
        weightedMode: 0
        inWeight: 0.33333334
        outWeight: 0.33333334
      - serializedVersion: 3
        time: 0.23333333
        value: 0
        inSlope: 0
        outSlope: 0
        tangentMode: 136
        weightedMode: 0
        inWeight: 0.33333334
        outWeight: 0.33333334
      - serializedVersion: 3
        time: 2.7333333
        value: 0
        inSlope: 0
        outSlope: 0
        tangentMode: 136
        weightedMode: 0
        inWeight: 0.33333334
        outWeight: 0.33333334
      m_PreInfinity: 2
      m_PostInfinity: 2
      m_RotationOrder: 4
    attribute: m_Color.r
    path: Top_Left_Score_3x3_Txt
    classID: 114
    script: {fileID: 708705254, guid: f70555f144d8491a825f0804e09c671c, type: 3}
  - curve:
      serializedVersion: 2
      m_Curve:
      - serializedVersion: 3
        time: 0
        value: 1
        inSlope: 0
        outSlope: 0
        tangentMode: 136
        weightedMode: 0
        inWeight: 0.33333334
        outWeight: 0.33333334
      - serializedVersion: 3
        time: 2.7333333
        value: 1
        inSlope: 0
        outSlope: 0
        tangentMode: 136
        weightedMode: 0
        inWeight: 0.33333334
        outWeight: 0.33333334
      m_PreInfinity: 2
      m_PostInfinity: 2
      m_RotationOrder: 4
    attribute: m_Color.g
    path: Top_Left_Score_3x3_Txt
    classID: 114
    script: {fileID: 708705254, guid: f70555f144d8491a825f0804e09c671c, type: 3}
  - curve:
      serializedVersion: 2
      m_Curve:
      - serializedVersion: 3
        time: 0
        value: 1
        inSlope: 0
        outSlope: 0
        tangentMode: 136
        weightedMode: 0
        inWeight: 0.33333334
        outWeight: 0.33333334
      - serializedVersion: 3
        time: 0.23333333
        value: 0.07058824
        inSlope: -0.027683014
        outSlope: -0.027683014
        tangentMode: 136
        weightedMode: 0
        inWeight: 0.33333334
        outWeight: 0.33333334
      - serializedVersion: 3
        time: 2.7333333
        value: 0.051671505
        inSlope: 0
        outSlope: 0
        tangentMode: 136
        weightedMode: 0
        inWeight: 0.33333334
        outWeight: 0.33333334
      m_PreInfinity: 2
      m_PostInfinity: 2
      m_RotationOrder: 4
    attribute: m_Color.b
    path: Top_Left_Score_3x3_Txt
    classID: 114
    script: {fileID: 708705254, guid: f70555f144d8491a825f0804e09c671c, type: 3}
  - curve:
      serializedVersion: 2
      m_Curve:
      - serializedVersion: 3
        time: 0
        value: 0
        inSlope: Infinity
        outSlope: Infinity
        tangentMode: 103
        weightedMode: 0
        inWeight: 0
        outWeight: 0
      - serializedVersion: 3
        time: 0.23333333
        value: 1
        inSlope: Infinity
        outSlope: Infinity
        tangentMode: 103
        weightedMode: 0
        inWeight: 0
        outWeight: 0
      - serializedVersion: 3
        time: 2.7333333
        value: 1
        inSlope: Infinity
        outSlope: Infinity
        tangentMode: 103
        weightedMode: 0
        inWeight: 0
        outWeight: 0
      - serializedVersion: 3
        time: 4.866667
        value: 0
        inSlope: Infinity
        outSlope: Infinity
        tangentMode: 103
        weightedMode: 0
        inWeight: 0
        outWeight: 0
      - serializedVersion: 3
        time: 6.133333
        value: 0
        inSlope: Infinity
        outSlope: Infinity
        tangentMode: 103
        weightedMode: 0
        inWeight: 0
        outWeight: 0
      m_PreInfinity: 2
      m_PostInfinity: 2
      m_RotationOrder: 4
    attribute: m_Enabled
    path: Top_Left_Score_3x3_Txt
    classID: 114
    script: {fileID: 708705254, guid: f70555f144d8491a825f0804e09c671c, type: 3}
  - curve:
      serializedVersion: 2
      m_Curve:
      - serializedVersion: 3
        time: 0
        value: 0
        inSlope: Infinity
        outSlope: Infinity
        tangentMode: 103
        weightedMode: 0
        inWeight: 0
        outWeight: 0
      - serializedVersion: 3
        time: 7.8333335
        value: 1
        inSlope: Infinity
        outSlope: Infinity
        tangentMode: 103
        weightedMode: 0
        inWeight: 0
        outWeight: 0
      - serializedVersion: 3
        time: 8.633333
        value: 0
        inSlope: Infinity
        outSlope: Infinity
        tangentMode: 103
        weightedMode: 0
        inWeight: 0
        outWeight: 0
      m_PreInfinity: 2
      m_PostInfinity: 2
      m_RotationOrder: 4
    attribute: m_Enabled
    path: Top_Right_Score_3_Txt
    classID: 114
    script: {fileID: 708705254, guid: f70555f144d8491a825f0804e09c671c, type: 3}
  - curve:
      serializedVersion: 2
      m_Curve:
      - serializedVersion: 3
        time: 0
        value: 1
        inSlope: 0
        outSlope: 0
        tangentMode: 136
        weightedMode: 0
        inWeight: 0.33333334
        outWeight: 0.33333334
      - serializedVersion: 3
        time: 0.23333333
        value: 0
        inSlope: 0
        outSlope: 0
        tangentMode: 136
        weightedMode: 0
        inWeight: 0.33333334
        outWeight: 0.33333334
      - serializedVersion: 3
        time: 2.7333333
        value: 0
        inSlope: 0
        outSlope: 0
        tangentMode: 136
        weightedMode: 0
        inWeight: 0.33333334
        outWeight: 0.33333334
      m_PreInfinity: 2
      m_PostInfinity: 2
      m_RotationOrder: 4
    attribute: m_Color.r
    path: Top_Right_Score_3x3_Txt
    classID: 114
    script: {fileID: 708705254, guid: f70555f144d8491a825f0804e09c671c, type: 3}
  - curve:
      serializedVersion: 2
      m_Curve:
      - serializedVersion: 3
        time: 0
        value: 1
        inSlope: 0
        outSlope: 0
        tangentMode: 136
        weightedMode: 0
        inWeight: 0.33333334
        outWeight: 0.33333334
      - serializedVersion: 3
        time: 2.7333333
        value: 1
        inSlope: 0
        outSlope: 0
        tangentMode: 136
        weightedMode: 0
        inWeight: 0.33333334
        outWeight: 0.33333334
      m_PreInfinity: 2
      m_PostInfinity: 2
      m_RotationOrder: 4
    attribute: m_Color.g
    path: Top_Right_Score_3x3_Txt
    classID: 114
    script: {fileID: 708705254, guid: f70555f144d8491a825f0804e09c671c, type: 3}
  - curve:
      serializedVersion: 2
      m_Curve:
      - serializedVersion: 3
        time: 0
        value: 1
        inSlope: 0
        outSlope: 0
        tangentMode: 136
        weightedMode: 0
        inWeight: 0.33333334
        outWeight: 0.33333334
      - serializedVersion: 3
        time: 0.23333333
        value: 0.07058824
        inSlope: -0.027683014
        outSlope: -0.027683014
        tangentMode: 136
        weightedMode: 0
        inWeight: 0.33333334
        outWeight: 0.33333334
      - serializedVersion: 3
        time: 2.7333333
        value: 0.051671505
        inSlope: 0
        outSlope: 0
        tangentMode: 136
        weightedMode: 0
        inWeight: 0.33333334
        outWeight: 0.33333334
      m_PreInfinity: 2
      m_PostInfinity: 2
      m_RotationOrder: 4
    attribute: m_Color.b
    path: Top_Right_Score_3x3_Txt
    classID: 114
    script: {fileID: 708705254, guid: f70555f144d8491a825f0804e09c671c, type: 3}
  - curve:
      serializedVersion: 2
      m_Curve:
      - serializedVersion: 3
        time: 0
        value: 0
        inSlope: Infinity
        outSlope: Infinity
        tangentMode: 103
        weightedMode: 0
        inWeight: 0
        outWeight: 0
      - serializedVersion: 3
        time: 0.23333333
        value: 1
        inSlope: Infinity
        outSlope: Infinity
        tangentMode: 103
        weightedMode: 0
        inWeight: 0
        outWeight: 0
      - serializedVersion: 3
        time: 2.7333333
        value: 1
        inSlope: Infinity
        outSlope: Infinity
        tangentMode: 103
        weightedMode: 0
        inWeight: 0
        outWeight: 0
      - serializedVersion: 3
        time: 4.866667
        value: 1
        inSlope: Infinity
        outSlope: Infinity
        tangentMode: 103
        weightedMode: 0
        inWeight: 0
        outWeight: 0
      - serializedVersion: 3
        time: 6.133333
        value: 0
        inSlope: Infinity
        outSlope: Infinity
        tangentMode: 103
        weightedMode: 0
        inWeight: 0
        outWeight: 0
      m_PreInfinity: 2
      m_PostInfinity: 2
      m_RotationOrder: 4
    attribute: m_Enabled
    path: Top_Right_Score_3x3_Txt
    classID: 114
    script: {fileID: 708705254, guid: f70555f144d8491a825f0804e09c671c, type: 3}
  - curve:
      serializedVersion: 2
      m_Curve:
      - serializedVersion: 3
        time: 0
        value: 0
        inSlope: Infinity
        outSlope: Infinity
        tangentMode: 103
        weightedMode: 0
        inWeight: 0
        outWeight: 0
      - serializedVersion: 3
        time: 0.13333334
        value: 1
        inSlope: Infinity
        outSlope: Infinity
        tangentMode: 103
        weightedMode: 0
        inWeight: 0
        outWeight: 0
      - serializedVersion: 3
        time: 4.866667
        value: 0
        inSlope: Infinity
        outSlope: Infinity
        tangentMode: 103
        weightedMode: 0
        inWeight: 0
        outWeight: 0
      m_PreInfinity: 2
      m_PostInfinity: 2
      m_RotationOrder: 4
    attribute: m_Enabled
    path: Left_Blue_Action_Name_Txt
    classID: 114
    script: {fileID: 708705254, guid: f70555f144d8491a825f0804e09c671c, type: 3}
  - curve:
      serializedVersion: 2
      m_Curve:
      - serializedVersion: 3
        time: 0
        value: 0
        inSlope: Infinity
        outSlope: Infinity
        tangentMode: 103
        weightedMode: 0
        inWeight: 0
        outWeight: 0
      - serializedVersion: 3
        time: 0.13333334
        value: 1
        inSlope: Infinity
        outSlope: Infinity
        tangentMode: 103
        weightedMode: 0
        inWeight: 0
        outWeight: 0
      - serializedVersion: 3
        time: 4.866667
        value: 0
        inSlope: Infinity
        outSlope: Infinity
        tangentMode: 103
        weightedMode: 0
        inWeight: 0
        outWeight: 0
      m_PreInfinity: 2
      m_PostInfinity: 2
      m_RotationOrder: 4
    attribute: m_Enabled
    path: Right_Blue_Action_Name_Txt
    classID: 114
    script: {fileID: 708705254, guid: f70555f144d8491a825f0804e09c671c, type: 3}
  m_PPtrCurves:
  - curve:
    - time: 0
      value: {fileID: 21300000, guid: 14cea5559591fa44e832047b1bf47908, type: 3}
    - time: 0.033333335
      value: {fileID: 21300000, guid: 758fa3fd2d9df354ea2412b4e229519e, type: 3}
    - time: 0.06666667
      value: {fileID: 21300000, guid: c9d4eb49f7d4f1a4da53569e071eaf96, type: 3}
    - time: 0.1
      value: {fileID: 21300000, guid: 32b2b5fb7b3583848aeb1d9b46b7bade, type: 3}
    - time: 0.13333334
      value: {fileID: 21300000, guid: 32ab6feec1add164e81756e7e66540ce, type: 3}
    - time: 0.16666667
      value: {fileID: 21300000, guid: 78e15cd617342fa40a8368206458c287, type: 3}
    - time: 0.2
      value: {fileID: 21300000, guid: c56ee503633c1f64c9f5533e5a729ee2, type: 3}
    - time: 0.23333333
      value: {fileID: 21300000, guid: 5fe595600422db54cbe93606931e9ad5, type: 3}
    - time: 0.26666668
      value: {fileID: 21300000, guid: e853bdf3634c6b24a97941cf54b6f564, type: 3}
    - time: 0.3
      value: {fileID: 21300000, guid: 2d6aa3174ed20d4419216cf4364c17fb, type: 3}
    - time: 0.33333334
      value: {fileID: 21300000, guid: 8d94202ffad030645bd465b3805e4ea8, type: 3}
    - time: 0.36666667
      value: {fileID: 21300000, guid: d6ca195b4afaf1f4c953b4eca7f657eb, type: 3}
    - time: 0.4
      value: {fileID: 21300000, guid: b8dfd368b73741f41b994c6025d07612, type: 3}
    - time: 0.43333334
      value: {fileID: 21300000, guid: 4411622016e6c0547a5fde8a5831fa87, type: 3}
    - time: 0.46666667
      value: {fileID: 21300000, guid: fed866838cb094c4e9ba007504947b96, type: 3}
    - time: 0.5
      value: {fileID: 21300000, guid: cc9dcad210e95de449d94a2ae0ad959f, type: 3}
    - time: 0.53333336
      value: {fileID: 21300000, guid: 63ead7e1d9582e844addd98ae06666eb, type: 3}
    - time: 0.56666666
      value: {fileID: 21300000, guid: 662c271bf8ace104b93d45d2ae6d5dce, type: 3}
    - time: 0.6
      value: {fileID: 21300000, guid: f97d76eab88d28a43a3526f33072fdb2, type: 3}
    - time: 0.6333333
      value: {fileID: 21300000, guid: afebe883387abb242bb799b5f298cf19, type: 3}
    - time: 0.6666667
      value: {fileID: 21300000, guid: d0ad3f4832a753f49a2a448599828c80, type: 3}
    - time: 0.7
      value: {fileID: 21300000, guid: 254bc138ed6e91747be7abec5673a53b, type: 3}
    - time: 2.7333333
      value: {fileID: 21300000, guid: 2bf18097bc0258d41bc1e9c682569416, type: 3}
    - time: 2.7666667
      value: {fileID: 21300000, guid: db07e84dc1b31b74e9f7deb104e6106e, type: 3}
    - time: 2.8
      value: {fileID: 21300000, guid: 5f71f3dbd88a3f4489a0861c4fd426ff, type: 3}
    - time: 2.8333333
      value: {fileID: 21300000, guid: 76f166ae98c93d641a7de35829a3aede, type: 3}
    - time: 2.8666666
      value: {fileID: 21300000, guid: 6cd96a91f2c418943b8fcfa181abdad4, type: 3}
    - time: 2.9
      value: {fileID: 21300000, guid: 794d0f45ec4db8e46bb0f61383151f44, type: 3}
    - time: 2.9333334
      value: {fileID: 21300000, guid: 5c19755034a82364d89936c42bb0dfe2, type: 3}
    - time: 2.9666667
      value: {fileID: 21300000, guid: 6b7b0166b4f17594689539535362c538, type: 3}
    - time: 3
      value: {fileID: 21300000, guid: 33789bda6e6004f4dba2fcec37f2ff90, type: 3}
    - time: 3.0333333
      value: {fileID: 21300000, guid: 5878b36765d1b8647b835a01c6240860, type: 3}
    - time: 3.0666666
      value: {fileID: 21300000, guid: 7536cbfa01394a24bbc7ef41efe18998, type: 3}
    - time: 3.1
      value: {fileID: 21300000, guid: f92320d3b5c7a444f9cd27618da4f222, type: 3}
    - time: 3.1333334
      value: {fileID: 21300000, guid: 9c098f3d98c4b8f42ad426129dea4d3a, type: 3}
    - time: 3.1666667
      value: {fileID: 21300000, guid: aa8327df1a2b04046abff1934ea04f3c, type: 3}
    - time: 3.2
      value: {fileID: 21300000, guid: 26d37f96ac5c41c43afe073492b5b97a, type: 3}
    - time: 3.2333333
      value: {fileID: 21300000, guid: 75a69604601195f4d8c91d66b3f9291c, type: 3}
    - time: 3.2666667
      value: {fileID: 21300000, guid: d40e1af7e5c3574438c7942a291e0e0a, type: 3}
    - time: 3.3
      value: {fileID: 21300000, guid: c4654826c27281843b021c387b50ed6a, type: 3}
    - time: 3.3333333
      value: {fileID: 21300000, guid: 0154b0fa0e77096458f6a470f68a5621, type: 3}
    - time: 3.3666666
      value: {fileID: 21300000, guid: cd90e846dec5baf41a7529af8eb46f28, type: 3}
    - time: 3.4
      value: {fileID: 21300000, guid: cd7503913698a5a4ca54fdbebbd4eb77, type: 3}
    - time: 3.4333334
      value: {fileID: 21300000, guid: 06418032c72d93e42986a45c5057fa4e, type: 3}
    - time: 3.4666667
      value: {fileID: 21300000, guid: 606c7d2a7ec653f4387db1b5f44ca969, type: 3}
    - time: 3.5
      value: {fileID: 21300000, guid: 00e346e88d475e641ba79123b2659e4b, type: 3}
    - time: 3.5333333
      value: {fileID: 21300000, guid: fd04896bcb2c5244493a4aa12dc21cab, type: 3}
    - time: 3.5666666
      value: {fileID: 21300000, guid: 3e3913ce6324d9b4c9c8a7c515f835da, type: 3}
    - time: 3.6
      value: {fileID: 21300000, guid: 8b4e014fcc32df8499e56511a7207ac4, type: 3}
    - time: 3.6333334
      value: {fileID: 21300000, guid: 4df61be3c0595634bb5d9d06dca1727b, type: 3}
    - time: 3.6666667
      value: {fileID: 21300000, guid: 0950c338ffb057247a7a71ea0ac53cd9, type: 3}
    - time: 3.7
      value: {fileID: 21300000, guid: 743e05506122a97429af5f340a1025c5, type: 3}
    - time: 3.7333333
      value: {fileID: 21300000, guid: 6c8604ff1d67a9e48862d7ef1376ed17, type: 3}
    - time: 3.7666667
      value: {fileID: 21300000, guid: 4a9b89853a600cf4db41dab9e8cc6a5d, type: 3}
    - time: 3.8
      value: {fileID: 21300000, guid: 45d3b2e76cf694044b936aaaddfcc0e8, type: 3}
    - time: 3.8333333
      value: {fileID: 21300000, guid: 8b79dd5d067328e49b0694a7983eac2c, type: 3}
    - time: 3.8666666
      value: {fileID: 21300000, guid: c39ce74b4bfd57d4f99f2fabdc3b8ba0, type: 3}
    - time: 3.9
      value: {fileID: 21300000, guid: a6fb81e3ff62ab441894077da9a4ff01, type: 3}
    - time: 3.9333334
      value: {fileID: 21300000, guid: 1322f902ed47590409eeb59cab88db28, type: 3}
    - time: 3.9666667
      value: {fileID: 21300000, guid: 1bf1a43a7e8e3b745814ffee560e9e41, type: 3}
    - time: 4
      value: {fileID: 21300000, guid: 80791815ff3d2ca45a31ef4bfc5ace27, type: 3}
    - time: 4.0333333
      value: {fileID: 21300000, guid: df8e044585baa864eb571dee557839f7, type: 3}
    - time: 4.0666666
      value: {fileID: 21300000, guid: 8f337e9a29a1e1444a8d97692b15e8e5, type: 3}
    - time: 4.1
      value: {fileID: 21300000, guid: 5145ad87010c60e45a6e7feaac4312d3, type: 3}
    - time: 4.133333
      value: {fileID: 21300000, guid: 6c391caf166901e4f9b0e5cf0b806862, type: 3}
    - time: 4.1666665
      value: {fileID: 21300000, guid: a38e838b0f04c074494ff6770a233780, type: 3}
    - time: 4.2
      value: {fileID: 21300000, guid: 961c736bea01f2e448ba59797657800e, type: 3}
    - time: 4.233333
      value: {fileID: 21300000, guid: bae5fa87509099c419b0ad1d953c6b6a, type: 3}
    - time: 4.266667
      value: {fileID: 21300000, guid: e198ce0d8cc1bfb4da080408203e9204, type: 3}
    - time: 4.3
      value: {fileID: 21300000, guid: c150d60762f16354aa9557d7709344e3, type: 3}
    - time: 4.3333335
      value: {fileID: 21300000, guid: 0b3e077daa5fa6f43b6765ec909d5c3d, type: 3}
    - time: 4.366667
      value: {fileID: 21300000, guid: 228f0d9b39ac99c4eb8174159991f22e, type: 3}
    - time: 4.4
      value: {fileID: 21300000, guid: 93c14060eef49364491d92f8050b523e, type: 3}
    - time: 4.4333334
      value: {fileID: 21300000, guid: 96f2c483c698695439cbb0a3bde1eaad, type: 3}
    - time: 4.4666667
      value: {fileID: 21300000, guid: 500b6c1c254639e4796b132a102c6fa8, type: 3}
    - time: 4.5
      value: {fileID: 21300000, guid: eb3d66efd35257e43b52f625bc1d8279, type: 3}
    - time: 4.5333333
      value: {fileID: 21300000, guid: 1e3f9c035aebe5141b82c2781c6d6486, type: 3}
    - time: 4.5666666
      value: {fileID: 21300000, guid: 4d5db166af0cab54eb507c8bcf3892aa, type: 3}
    - time: 4.6
      value: {fileID: 21300000, guid: 88ac682f596afb44f9af21d31f9525ea, type: 3}
    - time: 4.633333
      value: {fileID: 21300000, guid: 137ca39f40bd24f4b90e032581907a08, type: 3}
    - time: 4.6666665
      value: {fileID: 21300000, guid: d28841d6bdee33d4ea61719504177296, type: 3}
    - time: 4.7
      value: {fileID: 21300000, guid: 03ec400e21f6d2049b1474594f6a4c8a, type: 3}
    - time: 4.733333
      value: {fileID: 21300000, guid: 677c46f5ae57d5d49b54a94bdd211b51, type: 3}
    - time: 4.766667
      value: {fileID: 21300000, guid: 82df121c594034c4ab4d803973a812ce, type: 3}
    - time: 4.8
      value: {fileID: 21300000, guid: 9e5b0d01e40d136418e27e1433358a30, type: 3}
    - time: 4.8333335
      value: {fileID: 21300000, guid: b575d05d7a2d5d9448d4b4304505381e, type: 3}
    - time: 4.866667
      value: {fileID: 21300000, guid: 42cedb3816f1fd948aaffb2e2c7e825c, type: 3}
    - time: 4.9
      value: {fileID: 21300000, guid: 6a6cca144e136bf4690c83867a13a5f8, type: 3}
    - time: 4.9333334
      value: {fileID: 21300000, guid: 164177f28508adf46a59ddb2d394a502, type: 3}
    - time: 4.9666667
      value: {fileID: 21300000, guid: a888bfab301baf44c864d3fdba1f114f, type: 3}
    - time: 5
      value: {fileID: 21300000, guid: df12d8b928346e04b9991f0d4c67c570, type: 3}
    - time: 5.0333333
      value: {fileID: 21300000, guid: 8222d4f0969ab3146aa93987af55bf3c, type: 3}
    - time: 5.0666666
      value: {fileID: 21300000, guid: 265b2ebc7d5388c4e950a0b8565baa50, type: 3}
    - time: 6.1
      value: {fileID: 21300000, guid: cef5257644c3a5f499cc1e3b400004ac, type: 3}
    - time: 6.133333
      value: {fileID: 21300000, guid: 09607a24520c894458fc97d68a76944e, type: 3}
    - time: 6.1666665
      value: {fileID: 21300000, guid: 07fb756c9362ab7468fc59b323f36197, type: 3}
    - time: 6.2
      value: {fileID: 21300000, guid: 6bab89760236e8642939364eb4bff861, type: 3}
    - time: 6.233333
      value: {fileID: 21300000, guid: 10b503b6235e54c49824c131fc9826d1, type: 3}
    - time: 6.266667
      value: {fileID: 21300000, guid: dd322b3935017674fac0e1966fc2c2b2, type: 3}
    - time: 6.3
      value: {fileID: 21300000, guid: f76bf07e04725734497c86e6c36e4e99, type: 3}
    - time: 6.3333335
      value: {fileID: 21300000, guid: 7cf208cf13e6b544bbafd2af3268af81, type: 3}
    - time: 6.366667
      value: {fileID: 21300000, guid: 2dc0f8d647873a3418d40d0b309a27fc, type: 3}
    - time: 6.4
      value: {fileID: 21300000, guid: a4c0fca4a6147864a8b75b984f3f67d4, type: 3}
    - time: 6.4333334
      value: {fileID: 21300000, guid: 09500f38c62081840bf1dc6d3e64b905, type: 3}
    - time: 6.4666667
      value: {fileID: 21300000, guid: 3c4c9b7af5b149245b1444aeea35ba4e, type: 3}
    - time: 6.5
      value: {fileID: 21300000, guid: a1a94fbed2ddb264482318c3088de7e0, type: 3}
    - time: 6.5333333
      value: {fileID: 21300000, guid: e86b67088dcf00a4bb8337961f94ee58, type: 3}
    - time: 6.5666666
      value: {fileID: 21300000, guid: 77fe5480a5d6e0b499f99902495bdcd0, type: 3}
    - time: 6.6
      value: {fileID: 21300000, guid: d5aa648c9f707714fb4ff58dcbb354e3, type: 3}
    - time: 6.633333
      value: {fileID: 21300000, guid: af8fcee9056999c4e829409f02394ce1, type: 3}
    - time: 6.6666665
      value: {fileID: 21300000, guid: abec4fd5a418fdc4b81fb1cd60d51b32, type: 3}
    - time: 6.7
      value: {fileID: 21300000, guid: ba1b630ae5097dd4c8dd0dcbc0938efd, type: 3}
    - time: 6.733333
      value: {fileID: 21300000, guid: 74d5d773a4fec4e40869c5367e9a6f76, type: 3}
    - time: 6.766667
      value: {fileID: 21300000, guid: c402755ba00cde642a54db279efdabcf, type: 3}
    - time: 6.8
      value: {fileID: 21300000, guid: 6a00b329046d98c46a19486a7bc3d7d0, type: 3}
    - time: 6.8333335
      value: {fileID: 21300000, guid: 6851faa8cf6d1f34689e184fb6964680, type: 3}
    - time: 6.866667
      value: {fileID: 21300000, guid: 6df693a4fbfa9a74b85655e53fb0cbc5, type: 3}
    - time: 6.9
      value: {fileID: 21300000, guid: 3a85f8cb9da5a34479fa938a5b50a3e8, type: 3}
    - time: 6.9333334
      value: {fileID: 21300000, guid: 8f84314969a48d74b84ae0f237208e49, type: 3}
    - time: 6.9666667
      value: {fileID: 21300000, guid: 3e6f959f7ea5b694182c4a5791f66b84, type: 3}
    - time: 7
      value: {fileID: 21300000, guid: 6c4803c3e8b9aed4fbea3cde25e04c98, type: 3}
    - time: 7.0333333
      value: {fileID: 21300000, guid: 3047cc16996b0b44b9c85cfd5517461d, type: 3}
    - time: 7.0666666
      value: {fileID: 21300000, guid: 34fec1e2cc0005544a02cea1b3b06393, type: 3}
    - time: 7.1
      value: {fileID: 21300000, guid: 3f742e9bfcdd5b745be7ebb9eb8a4a48, type: 3}
    - time: 7.133333
      value: {fileID: 21300000, guid: b5809416cf41f3b41b50190e4f5eeb23, type: 3}
    - time: 7.1666665
      value: {fileID: 21300000, guid: 59755fc7623a33f4bbc3f0c6af6cc279, type: 3}
    - time: 7.2
      value: {fileID: 21300000, guid: 37e59e7d2906e7e459b0cb7a1ecb6065, type: 3}
    - time: 7.233333
      value: {fileID: 21300000, guid: 3019ef345acb4fe4fa3fa63f93a0c9c5, type: 3}
    - time: 7.266667
      value: {fileID: 21300000, guid: e72113ded2c40a74db617a535796b42c, type: 3}
    - time: 7.3
      value: {fileID: 21300000, guid: 279c09ccee022fa4f95905a4d6c0c8a2, type: 3}
    - time: 7.3333335
      value: {fileID: 21300000, guid: 415b6f9719dd065479d8ba2994dae3a2, type: 3}
    - time: 7.366667
      value: {fileID: 21300000, guid: 6a0850ea7d1824a40afa77d67d278ad8, type: 3}
    - time: 7.4
      value: {fileID: 21300000, guid: f9b7d3d23f3e5cf48b3dfe14fd6329c2, type: 3}
    - time: 7.4333334
      value: {fileID: 21300000, guid: 9b0188b13b66f034aad52eefb0172cc3, type: 3}
    - time: 7.4666667
      value: {fileID: 21300000, guid: f4825f1e74df2fe499833bbd1ddf20bc, type: 3}
    - time: 7.5
      value: {fileID: 21300000, guid: fcb3a9f4bd3d27b4382fd5dec0e2ec02, type: 3}
    - time: 7.5333333
      value: {fileID: 21300000, guid: 91d386a107ab7e34eb3342505d807372, type: 3}
    - time: 7.5666666
      value: {fileID: 21300000, guid: 8e594e99ababc97468a9037af35759ab, type: 3}
    - time: 7.6
      value: {fileID: 21300000, guid: 7a6863059df8f054eaa5854d9474fb2e, type: 3}
    - time: 7.633333
      value: {fileID: 21300000, guid: 556cb50e2460e474ba8714a4ca8221af, type: 3}
    - time: 7.6666665
      value: {fileID: 21300000, guid: d97ef8a512118474fbda91897fe0555a, type: 3}
    - time: 7.7
      value: {fileID: 21300000, guid: 17d6ca3c6906c2a489b2af54556d4cc4, type: 3}
    - time: 7.733333
      value: {fileID: 21300000, guid: 983aac52328e18b47b710f5dd8406263, type: 3}
    - time: 7.766667
      value: {fileID: 21300000, guid: 49d6cce15c25bf441b6272c2d2b91fe0, type: 3}
    - time: 7.8
      value: {fileID: 21300000, guid: 75ab5e4b2a96e6d4c9a2ba1c71d1e2ef, type: 3}
    - time: 7.8333335
      value: {fileID: 21300000, guid: ccf6cb793ee4f3d42882075ae2597e00, type: 3}
    - time: 7.866667
      value: {fileID: 21300000, guid: c5f2ad9186343264cbefab6d035e6e2c, type: 3}
    - time: 7.9
      value: {fileID: 21300000, guid: bfd45fabac0264a468aae976b550ffb2, type: 3}
    - time: 7.9333334
      value: {fileID: 21300000, guid: 4b49bcfcfb9a8404aa48016ce0971d0d, type: 3}
    - time: 7.9666667
      value: {fileID: 21300000, guid: 5f72bcc235409d941a0cb71b861e7e84, type: 3}
    - time: 8
      value: {fileID: 21300000, guid: 8cb667c396811a54f800a1e7c500ecc2, type: 3}
    - time: 8.066667
      value: {fileID: 21300000, guid: 1f62e981c70591c42a79fd78a2edf606, type: 3}
    - time: 8.1
      value: {fileID: 21300000, guid: 217b5a4d50aa17c43ac3633e0e03f5f7, type: 3}
    - time: 8.133333
      value: {fileID: 21300000, guid: f00ccf1b6906339408bf09e02af7c5d8, type: 3}
    - time: 8.166667
      value: {fileID: 21300000, guid: 95c96fbab9e51b14f9fd53827cf1fda2, type: 3}
    - time: 8.2
      value: {fileID: 21300000, guid: 0d14f7c946aaebe4c9c96b7b7f663979, type: 3}
    - time: 8.233334
      value: {fileID: 21300000, guid: 99c384e22dc596842877bde24ce36764, type: 3}
    - time: 8.266666
      value: {fileID: 21300000, guid: dab3ad01726081b43b5df71289439713, type: 3}
    - time: 8.3
      value: {fileID: 21300000, guid: 5f4ab2d966b420942a59304d3cfa02bc, type: 3}
    - time: 8.333333
      value: {fileID: 21300000, guid: d940be92f49f9a04e807881118edd7fb, type: 3}
    - time: 8.366667
      value: {fileID: 21300000, guid: 1041fcc92cdacef45bf0a008b06a9e63, type: 3}
    - time: 8.4
      value: {fileID: 21300000, guid: 4d08f946950283c4ea1944e4e7e4797f, type: 3}
    - time: 8.433333
      value: {fileID: 21300000, guid: 3fc3957c249b65047bd10a00fcb2b78d, type: 3}
    - time: 8.466666
      value: {fileID: 21300000, guid: fed55c69020bfc645aa2c846b3a15564, type: 3}
    - time: 8.5
      value: {fileID: 21300000, guid: 5145c604bac44b34b8d8f8352b57c489, type: 3}
    - time: 8.533334
      value: {fileID: 21300000, guid: 1c4231b2871abef42aecd7b5d7c91890, type: 3}
    - time: 8.566667
      value: {fileID: 21300000, guid: 6e47645f4ad17654e8ae820bb43f8161, type: 3}
    - time: 8.6
      value: {fileID: 21300000, guid: 215b8c311eda0ea4ebd2ca5c2661f141, type: 3}
    - time: 8.633333
      value: {fileID: 21300000, guid: 8409064a85da67544aba99c9d8146169, type: 3}
    - time: 8.666667
      value: {fileID: 21300000, guid: 8b3c1eb6df60a5f49ac838d7f06fa9e3, type: 3}
    - time: 8.7
      value: {fileID: 21300000, guid: d888e4fba3cd88748854580515efc318, type: 3}
    attribute: m_Sprite
    path: Long_Versus_Top_Blue_Range_Win_Low_Red_Range_Win_Img
    classID: 114
    script: {fileID: -765806418, guid: f70555f144d8491a825f0804e09c671c, type: 3}
  m_SampleRate: 30
  m_WrapMode: 0
  m_Bounds:
    m_Center: {x: 0, y: 0, z: 0}
    m_Extent: {x: 0, y: 0, z: 0}
  m_ClipBindingConstant:
    genericBindings:
    - serializedVersion: 2
      path: 3178901667
      attribute: 3305885265
      script: {fileID: 708705254, guid: f70555f144d8491a825f0804e09c671c, type: 3}
      typeID: 114
      customType: 24
      isPPtrCurve: 0
    - serializedVersion: 2
      path: 1076089766
      attribute: 3305885265
      script: {fileID: 708705254, guid: f70555f144d8491a825f0804e09c671c, type: 3}
      typeID: 114
      customType: 24
      isPPtrCurve: 0
    - serializedVersion: 2
      path: 2098330896
      attribute: 3305885265
      script: {fileID: 708705254, guid: f70555f144d8491a825f0804e09c671c, type: 3}
      typeID: 114
      customType: 24
      isPPtrCurve: 0
    - serializedVersion: 2
      path: 1284176497
      attribute: 2526845255
      script: {fileID: 708705254, guid: f70555f144d8491a825f0804e09c671c, type: 3}
      typeID: 114
      customType: 0
      isPPtrCurve: 0
    - serializedVersion: 2
      path: 1284176497
      attribute: 2334886179
      script: {fileID: 708705254, guid: f70555f144d8491a825f0804e09c671c, type: 3}
      typeID: 114
      customType: 0
      isPPtrCurve: 0
    - serializedVersion: 2
      path: 1284176497
      attribute: 3305885265
      script: {fileID: 708705254, guid: f70555f144d8491a825f0804e09c671c, type: 3}
      typeID: 114
      customType: 24
      isPPtrCurve: 0
    - serializedVersion: 2
      path: 2975189010
      attribute: 3305885265
      script: {fileID: 708705254, guid: f70555f144d8491a825f0804e09c671c, type: 3}
      typeID: 114
      customType: 24
      isPPtrCurve: 0
    - serializedVersion: 2
      path: 672108692
      attribute: 2526845255
      script: {fileID: 708705254, guid: f70555f144d8491a825f0804e09c671c, type: 3}
      typeID: 114
      customType: 0
      isPPtrCurve: 0
    - serializedVersion: 2
      path: 672108692
      attribute: 2334886179
      script: {fileID: 708705254, guid: f70555f144d8491a825f0804e09c671c, type: 3}
      typeID: 114
      customType: 0
      isPPtrCurve: 0
    - serializedVersion: 2
      path: 672108692
      attribute: 3305885265
      script: {fileID: 708705254, guid: f70555f144d8491a825f0804e09c671c, type: 3}
      typeID: 114
      customType: 24
      isPPtrCurve: 0
    - serializedVersion: 2
      path: 3536777113
      attribute: 3305885265
      script: {fileID: 708705254, guid: f70555f144d8491a825f0804e09c671c, type: 3}
      typeID: 114
      customType: 24
      isPPtrCurve: 0
    - serializedVersion: 2
      path: 897532266
      attribute: 3305885265
      script: {fileID: 708705254, guid: f70555f144d8491a825f0804e09c671c, type: 3}
      typeID: 114
      customType: 24
      isPPtrCurve: 0
    - serializedVersion: 2
      path: 755557379
      attribute: 2015549526
      script: {fileID: -765806418, guid: f70555f144d8491a825f0804e09c671c, type: 3}
      typeID: 114
      customType: 0
      isPPtrCurve: 1
    - serializedVersion: 2
      path: 1284176497
      attribute: 4215373228
      script: {fileID: 708705254, guid: f70555f144d8491a825f0804e09c671c, type: 3}
      typeID: 114
      customType: 0
      isPPtrCurve: 0
    - serializedVersion: 2
      path: 672108692
      attribute: 4215373228
      script: {fileID: 708705254, guid: f70555f144d8491a825f0804e09c671c, type: 3}
      typeID: 114
      customType: 0
      isPPtrCurve: 0
    pptrCurveMapping:
    - {fileID: 21300000, guid: 14cea5559591fa44e832047b1bf47908, type: 3}
    - {fileID: 21300000, guid: 758fa3fd2d9df354ea2412b4e229519e, type: 3}
    - {fileID: 21300000, guid: c9d4eb49f7d4f1a4da53569e071eaf96, type: 3}
    - {fileID: 21300000, guid: 32b2b5fb7b3583848aeb1d9b46b7bade, type: 3}
    - {fileID: 21300000, guid: 32ab6feec1add164e81756e7e66540ce, type: 3}
    - {fileID: 21300000, guid: 78e15cd617342fa40a8368206458c287, type: 3}
    - {fileID: 21300000, guid: c56ee503633c1f64c9f5533e5a729ee2, type: 3}
    - {fileID: 21300000, guid: 5fe595600422db54cbe93606931e9ad5, type: 3}
    - {fileID: 21300000, guid: e853bdf3634c6b24a97941cf54b6f564, type: 3}
    - {fileID: 21300000, guid: 2d6aa3174ed20d4419216cf4364c17fb, type: 3}
    - {fileID: 21300000, guid: 8d94202ffad030645bd465b3805e4ea8, type: 3}
    - {fileID: 21300000, guid: d6ca195b4afaf1f4c953b4eca7f657eb, type: 3}
    - {fileID: 21300000, guid: b8dfd368b73741f41b994c6025d07612, type: 3}
    - {fileID: 21300000, guid: 4411622016e6c0547a5fde8a5831fa87, type: 3}
    - {fileID: 21300000, guid: fed866838cb094c4e9ba007504947b96, type: 3}
    - {fileID: 21300000, guid: cc9dcad210e95de449d94a2ae0ad959f, type: 3}
    - {fileID: 21300000, guid: 63ead7e1d9582e844addd98ae06666eb, type: 3}
    - {fileID: 21300000, guid: 662c271bf8ace104b93d45d2ae6d5dce, type: 3}
    - {fileID: 21300000, guid: f97d76eab88d28a43a3526f33072fdb2, type: 3}
    - {fileID: 21300000, guid: afebe883387abb242bb799b5f298cf19, type: 3}
    - {fileID: 21300000, guid: d0ad3f4832a753f49a2a448599828c80, type: 3}
    - {fileID: 21300000, guid: 254bc138ed6e91747be7abec5673a53b, type: 3}
    - {fileID: 21300000, guid: 2bf18097bc0258d41bc1e9c682569416, type: 3}
    - {fileID: 21300000, guid: db07e84dc1b31b74e9f7deb104e6106e, type: 3}
    - {fileID: 21300000, guid: 5f71f3dbd88a3f4489a0861c4fd426ff, type: 3}
    - {fileID: 21300000, guid: 76f166ae98c93d641a7de35829a3aede, type: 3}
    - {fileID: 21300000, guid: 6cd96a91f2c418943b8fcfa181abdad4, type: 3}
    - {fileID: 21300000, guid: 794d0f45ec4db8e46bb0f61383151f44, type: 3}
    - {fileID: 21300000, guid: 5c19755034a82364d89936c42bb0dfe2, type: 3}
    - {fileID: 21300000, guid: 6b7b0166b4f17594689539535362c538, type: 3}
    - {fileID: 21300000, guid: 33789bda6e6004f4dba2fcec37f2ff90, type: 3}
    - {fileID: 21300000, guid: 5878b36765d1b8647b835a01c6240860, type: 3}
    - {fileID: 21300000, guid: 7536cbfa01394a24bbc7ef41efe18998, type: 3}
    - {fileID: 21300000, guid: f92320d3b5c7a444f9cd27618da4f222, type: 3}
    - {fileID: 21300000, guid: 9c098f3d98c4b8f42ad426129dea4d3a, type: 3}
    - {fileID: 21300000, guid: aa8327df1a2b04046abff1934ea04f3c, type: 3}
    - {fileID: 21300000, guid: 26d37f96ac5c41c43afe073492b5b97a, type: 3}
    - {fileID: 21300000, guid: 75a69604601195f4d8c91d66b3f9291c, type: 3}
    - {fileID: 21300000, guid: d40e1af7e5c3574438c7942a291e0e0a, type: 3}
    - {fileID: 21300000, guid: c4654826c27281843b021c387b50ed6a, type: 3}
    - {fileID: 21300000, guid: 0154b0fa0e77096458f6a470f68a5621, type: 3}
    - {fileID: 21300000, guid: cd90e846dec5baf41a7529af8eb46f28, type: 3}
    - {fileID: 21300000, guid: cd7503913698a5a4ca54fdbebbd4eb77, type: 3}
    - {fileID: 21300000, guid: 06418032c72d93e42986a45c5057fa4e, type: 3}
    - {fileID: 21300000, guid: 606c7d2a7ec653f4387db1b5f44ca969, type: 3}
    - {fileID: 21300000, guid: 00e346e88d475e641ba79123b2659e4b, type: 3}
    - {fileID: 21300000, guid: fd04896bcb2c5244493a4aa12dc21cab, type: 3}
    - {fileID: 21300000, guid: 3e3913ce6324d9b4c9c8a7c515f835da, type: 3}
    - {fileID: 21300000, guid: 8b4e014fcc32df8499e56511a7207ac4, type: 3}
    - {fileID: 21300000, guid: 4df61be3c0595634bb5d9d06dca1727b, type: 3}
    - {fileID: 21300000, guid: 0950c338ffb057247a7a71ea0ac53cd9, type: 3}
    - {fileID: 21300000, guid: 743e05506122a97429af5f340a1025c5, type: 3}
    - {fileID: 21300000, guid: 6c8604ff1d67a9e48862d7ef1376ed17, type: 3}
    - {fileID: 21300000, guid: 4a9b89853a600cf4db41dab9e8cc6a5d, type: 3}
    - {fileID: 21300000, guid: 45d3b2e76cf694044b936aaaddfcc0e8, type: 3}
    - {fileID: 21300000, guid: 8b79dd5d067328e49b0694a7983eac2c, type: 3}
    - {fileID: 21300000, guid: c39ce74b4bfd57d4f99f2fabdc3b8ba0, type: 3}
    - {fileID: 21300000, guid: a6fb81e3ff62ab441894077da9a4ff01, type: 3}
    - {fileID: 21300000, guid: 1322f902ed47590409eeb59cab88db28, type: 3}
    - {fileID: 21300000, guid: 1bf1a43a7e8e3b745814ffee560e9e41, type: 3}
    - {fileID: 21300000, guid: 80791815ff3d2ca45a31ef4bfc5ace27, type: 3}
    - {fileID: 21300000, guid: df8e044585baa864eb571dee557839f7, type: 3}
    - {fileID: 21300000, guid: 8f337e9a29a1e1444a8d97692b15e8e5, type: 3}
    - {fileID: 21300000, guid: 5145ad87010c60e45a6e7feaac4312d3, type: 3}
    - {fileID: 21300000, guid: 6c391caf166901e4f9b0e5cf0b806862, type: 3}
    - {fileID: 21300000, guid: a38e838b0f04c074494ff6770a233780, type: 3}
    - {fileID: 21300000, guid: 961c736bea01f2e448ba59797657800e, type: 3}
    - {fileID: 21300000, guid: bae5fa87509099c419b0ad1d953c6b6a, type: 3}
    - {fileID: 21300000, guid: e198ce0d8cc1bfb4da080408203e9204, type: 3}
    - {fileID: 21300000, guid: c150d60762f16354aa9557d7709344e3, type: 3}
    - {fileID: 21300000, guid: 0b3e077daa5fa6f43b6765ec909d5c3d, type: 3}
    - {fileID: 21300000, guid: 228f0d9b39ac99c4eb8174159991f22e, type: 3}
    - {fileID: 21300000, guid: 93c14060eef49364491d92f8050b523e, type: 3}
    - {fileID: 21300000, guid: 96f2c483c698695439cbb0a3bde1eaad, type: 3}
    - {fileID: 21300000, guid: 500b6c1c254639e4796b132a102c6fa8, type: 3}
    - {fileID: 21300000, guid: eb3d66efd35257e43b52f625bc1d8279, type: 3}
    - {fileID: 21300000, guid: 1e3f9c035aebe5141b82c2781c6d6486, type: 3}
    - {fileID: 21300000, guid: 4d5db166af0cab54eb507c8bcf3892aa, type: 3}
    - {fileID: 21300000, guid: 88ac682f596afb44f9af21d31f9525ea, type: 3}
    - {fileID: 21300000, guid: 137ca39f40bd24f4b90e032581907a08, type: 3}
    - {fileID: 21300000, guid: d28841d6bdee33d4ea61719504177296, type: 3}
    - {fileID: 21300000, guid: 03ec400e21f6d2049b1474594f6a4c8a, type: 3}
    - {fileID: 21300000, guid: 677c46f5ae57d5d49b54a94bdd211b51, type: 3}
    - {fileID: 21300000, guid: 82df121c594034c4ab4d803973a812ce, type: 3}
    - {fileID: 21300000, guid: 9e5b0d01e40d136418e27e1433358a30, type: 3}
    - {fileID: 21300000, guid: b575d05d7a2d5d9448d4b4304505381e, type: 3}
    - {fileID: 21300000, guid: 42cedb3816f1fd948aaffb2e2c7e825c, type: 3}
    - {fileID: 21300000, guid: 6a6cca144e136bf4690c83867a13a5f8, type: 3}
    - {fileID: 21300000, guid: 164177f28508adf46a59ddb2d394a502, type: 3}
    - {fileID: 21300000, guid: a888bfab301baf44c864d3fdba1f114f, type: 3}
    - {fileID: 21300000, guid: df12d8b928346e04b9991f0d4c67c570, type: 3}
    - {fileID: 21300000, guid: 8222d4f0969ab3146aa93987af55bf3c, type: 3}
    - {fileID: 21300000, guid: 265b2ebc7d5388c4e950a0b8565baa50, type: 3}
    - {fileID: 21300000, guid: cef5257644c3a5f499cc1e3b400004ac, type: 3}
    - {fileID: 21300000, guid: 09607a24520c894458fc97d68a76944e, type: 3}
    - {fileID: 21300000, guid: 07fb756c9362ab7468fc59b323f36197, type: 3}
    - {fileID: 21300000, guid: 6bab89760236e8642939364eb4bff861, type: 3}
    - {fileID: 21300000, guid: 10b503b6235e54c49824c131fc9826d1, type: 3}
    - {fileID: 21300000, guid: dd322b3935017674fac0e1966fc2c2b2, type: 3}
    - {fileID: 21300000, guid: f76bf07e04725734497c86e6c36e4e99, type: 3}
    - {fileID: 21300000, guid: 7cf208cf13e6b544bbafd2af3268af81, type: 3}
    - {fileID: 21300000, guid: 2dc0f8d647873a3418d40d0b309a27fc, type: 3}
    - {fileID: 21300000, guid: a4c0fca4a6147864a8b75b984f3f67d4, type: 3}
    - {fileID: 21300000, guid: 09500f38c62081840bf1dc6d3e64b905, type: 3}
    - {fileID: 21300000, guid: 3c4c9b7af5b149245b1444aeea35ba4e, type: 3}
    - {fileID: 21300000, guid: a1a94fbed2ddb264482318c3088de7e0, type: 3}
    - {fileID: 21300000, guid: e86b67088dcf00a4bb8337961f94ee58, type: 3}
    - {fileID: 21300000, guid: 77fe5480a5d6e0b499f99902495bdcd0, type: 3}
    - {fileID: 21300000, guid: d5aa648c9f707714fb4ff58dcbb354e3, type: 3}
    - {fileID: 21300000, guid: af8fcee9056999c4e829409f02394ce1, type: 3}
    - {fileID: 21300000, guid: abec4fd5a418fdc4b81fb1cd60d51b32, type: 3}
    - {fileID: 21300000, guid: ba1b630ae5097dd4c8dd0dcbc0938efd, type: 3}
    - {fileID: 21300000, guid: 74d5d773a4fec4e40869c5367e9a6f76, type: 3}
    - {fileID: 21300000, guid: c402755ba00cde642a54db279efdabcf, type: 3}
    - {fileID: 21300000, guid: 6a00b329046d98c46a19486a7bc3d7d0, type: 3}
    - {fileID: 21300000, guid: 6851faa8cf6d1f34689e184fb6964680, type: 3}
    - {fileID: 21300000, guid: 6df693a4fbfa9a74b85655e53fb0cbc5, type: 3}
    - {fileID: 21300000, guid: 3a85f8cb9da5a34479fa938a5b50a3e8, type: 3}
    - {fileID: 21300000, guid: 8f84314969a48d74b84ae0f237208e49, type: 3}
    - {fileID: 21300000, guid: 3e6f959f7ea5b694182c4a5791f66b84, type: 3}
    - {fileID: 21300000, guid: 6c4803c3e8b9aed4fbea3cde25e04c98, type: 3}
    - {fileID: 21300000, guid: 3047cc16996b0b44b9c85cfd5517461d, type: 3}
    - {fileID: 21300000, guid: 34fec1e2cc0005544a02cea1b3b06393, type: 3}
    - {fileID: 21300000, guid: 3f742e9bfcdd5b745be7ebb9eb8a4a48, type: 3}
    - {fileID: 21300000, guid: b5809416cf41f3b41b50190e4f5eeb23, type: 3}
    - {fileID: 21300000, guid: 59755fc7623a33f4bbc3f0c6af6cc279, type: 3}
    - {fileID: 21300000, guid: 37e59e7d2906e7e459b0cb7a1ecb6065, type: 3}
    - {fileID: 21300000, guid: 3019ef345acb4fe4fa3fa63f93a0c9c5, type: 3}
    - {fileID: 21300000, guid: e72113ded2c40a74db617a535796b42c, type: 3}
    - {fileID: 21300000, guid: 279c09ccee022fa4f95905a4d6c0c8a2, type: 3}
    - {fileID: 21300000, guid: 415b6f9719dd065479d8ba2994dae3a2, type: 3}
    - {fileID: 21300000, guid: 6a0850ea7d1824a40afa77d67d278ad8, type: 3}
    - {fileID: 21300000, guid: f9b7d3d23f3e5cf48b3dfe14fd6329c2, type: 3}
    - {fileID: 21300000, guid: 9b0188b13b66f034aad52eefb0172cc3, type: 3}
    - {fileID: 21300000, guid: f4825f1e74df2fe499833bbd1ddf20bc, type: 3}
    - {fileID: 21300000, guid: fcb3a9f4bd3d27b4382fd5dec0e2ec02, type: 3}
    - {fileID: 21300000, guid: 91d386a107ab7e34eb3342505d807372, type: 3}
    - {fileID: 21300000, guid: 8e594e99ababc97468a9037af35759ab, type: 3}
    - {fileID: 21300000, guid: 7a6863059df8f054eaa5854d9474fb2e, type: 3}
    - {fileID: 21300000, guid: 556cb50e2460e474ba8714a4ca8221af, type: 3}
    - {fileID: 21300000, guid: d97ef8a512118474fbda91897fe0555a, type: 3}
    - {fileID: 21300000, guid: 17d6ca3c6906c2a489b2af54556d4cc4, type: 3}
    - {fileID: 21300000, guid: 983aac52328e18b47b710f5dd8406263, type: 3}
    - {fileID: 21300000, guid: 49d6cce15c25bf441b6272c2d2b91fe0, type: 3}
    - {fileID: 21300000, guid: 75ab5e4b2a96e6d4c9a2ba1c71d1e2ef, type: 3}
    - {fileID: 21300000, guid: ccf6cb793ee4f3d42882075ae2597e00, type: 3}
    - {fileID: 21300000, guid: c5f2ad9186343264cbefab6d035e6e2c, type: 3}
    - {fileID: 21300000, guid: bfd45fabac0264a468aae976b550ffb2, type: 3}
    - {fileID: 21300000, guid: 4b49bcfcfb9a8404aa48016ce0971d0d, type: 3}
    - {fileID: 21300000, guid: 5f72bcc235409d941a0cb71b861e7e84, type: 3}
    - {fileID: 21300000, guid: 8cb667c396811a54f800a1e7c500ecc2, type: 3}
    - {fileID: 21300000, guid: 1f62e981c70591c42a79fd78a2edf606, type: 3}
    - {fileID: 21300000, guid: 217b5a4d50aa17c43ac3633e0e03f5f7, type: 3}
    - {fileID: 21300000, guid: f00ccf1b6906339408bf09e02af7c5d8, type: 3}
    - {fileID: 21300000, guid: 95c96fbab9e51b14f9fd53827cf1fda2, type: 3}
    - {fileID: 21300000, guid: 0d14f7c946aaebe4c9c96b7b7f663979, type: 3}
    - {fileID: 21300000, guid: 99c384e22dc596842877bde24ce36764, type: 3}
    - {fileID: 21300000, guid: dab3ad01726081b43b5df71289439713, type: 3}
    - {fileID: 21300000, guid: 5f4ab2d966b420942a59304d3cfa02bc, type: 3}
    - {fileID: 21300000, guid: d940be92f49f9a04e807881118edd7fb, type: 3}
    - {fileID: 21300000, guid: 1041fcc92cdacef45bf0a008b06a9e63, type: 3}
    - {fileID: 21300000, guid: 4d08f946950283c4ea1944e4e7e4797f, type: 3}
    - {fileID: 21300000, guid: 3fc3957c249b65047bd10a00fcb2b78d, type: 3}
    - {fileID: 21300000, guid: fed55c69020bfc645aa2c846b3a15564, type: 3}
    - {fileID: 21300000, guid: 5145c604bac44b34b8d8f8352b57c489, type: 3}
    - {fileID: 21300000, guid: 1c4231b2871abef42aecd7b5d7c91890, type: 3}
    - {fileID: 21300000, guid: 6e47645f4ad17654e8ae820bb43f8161, type: 3}
    - {fileID: 21300000, guid: 215b8c311eda0ea4ebd2ca5c2661f141, type: 3}
    - {fileID: 21300000, guid: 8409064a85da67544aba99c9d8146169, type: 3}
    - {fileID: 21300000, guid: 8b3c1eb6df60a5f49ac838d7f06fa9e3, type: 3}
    - {fileID: 21300000, guid: d888e4fba3cd88748854580515efc318, type: 3}
  m_AnimationClipSettings:
    serializedVersion: 2
    m_AdditiveReferencePoseClip: {fileID: 0}
    m_AdditiveReferencePoseTime: 0
    m_StartTime: 0
    m_StopTime: 8.733334
    m_OrientationOffsetY: 0
    m_Level: 0
    m_CycleOffset: 0
    m_HasAdditiveReferencePose: 0
    m_LoopTime: 0
    m_LoopBlend: 0
    m_LoopBlendOrientation: 0
    m_LoopBlendPositionY: 0
    m_LoopBlendPositionXZ: 0
    m_KeepOriginalOrientation: 0
    m_KeepOriginalPositionY: 1
    m_KeepOriginalPositionXZ: 0
    m_HeightFromFeet: 0
    m_Mirror: 0
  m_EditorCurves:
  - curve:
      serializedVersion: 2
      m_Curve:
      - serializedVersion: 3
        time: 0
        value: 0
        inSlope: Infinity
        outSlope: Infinity
        tangentMode: 103
        weightedMode: 0
        inWeight: 0
        outWeight: 0
      - serializedVersion: 3
        time: 0.56666666
        value: 1
        inSlope: Infinity
        outSlope: Infinity
        tangentMode: 103
        weightedMode: 0
        inWeight: 0
        outWeight: 0
      - serializedVersion: 3
        time: 2.7333333
        value: 1
        inSlope: Infinity
        outSlope: Infinity
        tangentMode: 103
        weightedMode: 0
        inWeight: 0
        outWeight: 0
      - serializedVersion: 3
        time: 4.866667
        value: 1
        inSlope: Infinity
        outSlope: Infinity
        tangentMode: 103
        weightedMode: 0
        inWeight: 0
        outWeight: 0
      - serializedVersion: 3
        time: 6.133333
        value: 0
        inSlope: Infinity
        outSlope: Infinity
        tangentMode: 103
        weightedMode: 0
        inWeight: 0
        outWeight: 0
      m_PreInfinity: 2
      m_PostInfinity: 2
      m_RotationOrder: 4
    attribute: m_Enabled
    path: Low_Left_Score_3x3_Txt
    classID: 114
    script: {fileID: 708705254, guid: f70555f144d8491a825f0804e09c671c, type: 3}
  - curve:
      serializedVersion: 2
      m_Curve:
      - serializedVersion: 3
        time: 0
        value: 0
        inSlope: Infinity
        outSlope: Infinity
        tangentMode: 103
        weightedMode: 0
        inWeight: 0
        outWeight: 0
      - serializedVersion: 3
        time: 0.56666666
        value: 1
        inSlope: Infinity
        outSlope: Infinity
        tangentMode: 103
        weightedMode: 0
        inWeight: 0
        outWeight: 0
      - serializedVersion: 3
        time: 2.7333333
        value: 1
        inSlope: Infinity
        outSlope: Infinity
        tangentMode: 103
        weightedMode: 0
        inWeight: 0
        outWeight: 0
      - serializedVersion: 3
        time: 4.866667
        value: 0
        inSlope: Infinity
        outSlope: Infinity
        tangentMode: 103
        weightedMode: 0
        inWeight: 0
        outWeight: 0
      - serializedVersion: 3
        time: 6.133333
        value: 0
        inSlope: Infinity
        outSlope: Infinity
        tangentMode: 103
        weightedMode: 0
        inWeight: 0
        outWeight: 0
      m_PreInfinity: 2
      m_PostInfinity: 2
      m_RotationOrder: 4
    attribute: m_Enabled
    path: Low_Right_Score_3x3_Txt
    classID: 114
    script: {fileID: 708705254, guid: f70555f144d8491a825f0804e09c671c, type: 3}
  - curve:
      serializedVersion: 2
      m_Curve:
      - serializedVersion: 3
        time: 0
        value: 0
        inSlope: Infinity
        outSlope: Infinity
        tangentMode: 103
        weightedMode: 0
        inWeight: 0
        outWeight: 0
      - serializedVersion: 3
        time: 7.8333335
        value: 1
        inSlope: Infinity
        outSlope: Infinity
        tangentMode: 103
        weightedMode: 0
        inWeight: 0
        outWeight: 0
      - serializedVersion: 3
        time: 8.633333
        value: 0
        inSlope: Infinity
        outSlope: Infinity
        tangentMode: 103
        weightedMode: 0
        inWeight: 0
        outWeight: 0
      m_PreInfinity: 2
      m_PostInfinity: 2
      m_RotationOrder: 4
    attribute: m_Enabled
    path: Top_Left_Score_3_Txt
    classID: 114
    script: {fileID: 708705254, guid: f70555f144d8491a825f0804e09c671c, type: 3}
  - curve:
      serializedVersion: 2
      m_Curve:
      - serializedVersion: 3
        time: 0
        value: 1
        inSlope: 0
        outSlope: 0
        tangentMode: 136
        weightedMode: 0
        inWeight: 0.33333334
        outWeight: 0.33333334
      - serializedVersion: 3
        time: 0.23333333
        value: 0
        inSlope: 0
        outSlope: 0
        tangentMode: 136
        weightedMode: 0
        inWeight: 0.33333334
        outWeight: 0.33333334
      - serializedVersion: 3
        time: 2.7333333
        value: 0
        inSlope: 0
        outSlope: 0
        tangentMode: 136
        weightedMode: 0
        inWeight: 0.33333334
        outWeight: 0.33333334
      m_PreInfinity: 2
      m_PostInfinity: 2
      m_RotationOrder: 4
    attribute: m_Color.r
    path: Top_Left_Score_3x3_Txt
    classID: 114
    script: {fileID: 708705254, guid: f70555f144d8491a825f0804e09c671c, type: 3}
  - curve:
      serializedVersion: 2
      m_Curve:
      - serializedVersion: 3
        time: 0
        value: 1
        inSlope: 0
        outSlope: 0
        tangentMode: 136
        weightedMode: 0
        inWeight: 0.33333334
        outWeight: 0.33333334
      - serializedVersion: 3
        time: 2.7333333
        value: 1
        inSlope: 0
        outSlope: 0
        tangentMode: 136
        weightedMode: 0
        inWeight: 0.33333334
        outWeight: 0.33333334
      m_PreInfinity: 2
      m_PostInfinity: 2
      m_RotationOrder: 4
    attribute: m_Color.g
    path: Top_Left_Score_3x3_Txt
    classID: 114
    script: {fileID: 708705254, guid: f70555f144d8491a825f0804e09c671c, type: 3}
  - curve:
      serializedVersion: 2
      m_Curve:
      - serializedVersion: 3
        time: 0
        value: 1
        inSlope: 0
        outSlope: 0
        tangentMode: 136
        weightedMode: 0
        inWeight: 0.33333334
        outWeight: 0.33333334
      - serializedVersion: 3
        time: 0.23333333
        value: 0.07058824
        inSlope: -0.027683014
        outSlope: -0.027683014
        tangentMode: 136
        weightedMode: 0
        inWeight: 0.33333334
        outWeight: 0.33333334
      - serializedVersion: 3
        time: 2.7333333
        value: 0.051671505
        inSlope: 0
        outSlope: 0
        tangentMode: 136
        weightedMode: 0
        inWeight: 0.33333334
        outWeight: 0.33333334
      m_PreInfinity: 2
      m_PostInfinity: 2
      m_RotationOrder: 4
    attribute: m_Color.b
    path: Top_Left_Score_3x3_Txt
    classID: 114
    script: {fileID: 708705254, guid: f70555f144d8491a825f0804e09c671c, type: 3}
  - curve:
      serializedVersion: 2
      m_Curve:
      - serializedVersion: 3
        time: 0
        value: 0
        inSlope: Infinity
        outSlope: Infinity
        tangentMode: 103
        weightedMode: 0
        inWeight: 0
        outWeight: 0
      - serializedVersion: 3
        time: 0.23333333
        value: 1
        inSlope: Infinity
        outSlope: Infinity
        tangentMode: 103
        weightedMode: 0
        inWeight: 0
        outWeight: 0
      - serializedVersion: 3
        time: 2.7333333
        value: 1
        inSlope: Infinity
        outSlope: Infinity
        tangentMode: 103
        weightedMode: 0
        inWeight: 0
        outWeight: 0
      - serializedVersion: 3
        time: 4.866667
        value: 0
        inSlope: Infinity
        outSlope: Infinity
        tangentMode: 103
        weightedMode: 0
        inWeight: 0
        outWeight: 0
      - serializedVersion: 3
        time: 6.133333
        value: 0
        inSlope: Infinity
        outSlope: Infinity
        tangentMode: 103
        weightedMode: 0
        inWeight: 0
        outWeight: 0
      m_PreInfinity: 2
      m_PostInfinity: 2
      m_RotationOrder: 4
    attribute: m_Enabled
    path: Top_Left_Score_3x3_Txt
    classID: 114
    script: {fileID: 708705254, guid: f70555f144d8491a825f0804e09c671c, type: 3}
  - curve:
      serializedVersion: 2
      m_Curve:
      - serializedVersion: 3
        time: 0
        value: 0
        inSlope: Infinity
        outSlope: Infinity
        tangentMode: 103
        weightedMode: 0
        inWeight: 0
        outWeight: 0
      - serializedVersion: 3
        time: 7.8333335
        value: 1
        inSlope: Infinity
        outSlope: Infinity
        tangentMode: 103
        weightedMode: 0
        inWeight: 0
        outWeight: 0
      - serializedVersion: 3
        time: 8.633333
        value: 0
        inSlope: Infinity
        outSlope: Infinity
        tangentMode: 103
        weightedMode: 0
        inWeight: 0
        outWeight: 0
      m_PreInfinity: 2
      m_PostInfinity: 2
      m_RotationOrder: 4
    attribute: m_Enabled
    path: Top_Right_Score_3_Txt
    classID: 114
    script: {fileID: 708705254, guid: f70555f144d8491a825f0804e09c671c, type: 3}
  - curve:
      serializedVersion: 2
      m_Curve:
      - serializedVersion: 3
        time: 0
        value: 1
        inSlope: 0
        outSlope: 0
        tangentMode: 136
        weightedMode: 0
        inWeight: 0.33333334
        outWeight: 0.33333334
      - serializedVersion: 3
        time: 0.23333333
        value: 0
        inSlope: 0
        outSlope: 0
        tangentMode: 136
        weightedMode: 0
        inWeight: 0.33333334
        outWeight: 0.33333334
      - serializedVersion: 3
        time: 2.7333333
        value: 0
        inSlope: 0
        outSlope: 0
        tangentMode: 136
        weightedMode: 0
        inWeight: 0.33333334
        outWeight: 0.33333334
      m_PreInfinity: 2
      m_PostInfinity: 2
      m_RotationOrder: 4
    attribute: m_Color.r
    path: Top_Right_Score_3x3_Txt
    classID: 114
    script: {fileID: 708705254, guid: f70555f144d8491a825f0804e09c671c, type: 3}
  - curve:
      serializedVersion: 2
      m_Curve:
      - serializedVersion: 3
        time: 0
        value: 1
        inSlope: 0
        outSlope: 0
        tangentMode: 136
        weightedMode: 0
        inWeight: 0.33333334
        outWeight: 0.33333334
      - serializedVersion: 3
        time: 2.7333333
        value: 1
        inSlope: 0
        outSlope: 0
        tangentMode: 136
        weightedMode: 0
        inWeight: 0.33333334
        outWeight: 0.33333334
      m_PreInfinity: 2
      m_PostInfinity: 2
      m_RotationOrder: 4
    attribute: m_Color.g
    path: Top_Right_Score_3x3_Txt
    classID: 114
    script: {fileID: 708705254, guid: f70555f144d8491a825f0804e09c671c, type: 3}
  - curve:
      serializedVersion: 2
      m_Curve:
      - serializedVersion: 3
        time: 0
        value: 1
        inSlope: 0
        outSlope: 0
        tangentMode: 136
        weightedMode: 0
        inWeight: 0.33333334
        outWeight: 0.33333334
      - serializedVersion: 3
        time: 0.23333333
        value: 0.07058824
        inSlope: -0.027683014
        outSlope: -0.027683014
        tangentMode: 136
        weightedMode: 0
        inWeight: 0.33333334
        outWeight: 0.33333334
      - serializedVersion: 3
        time: 2.7333333
        value: 0.051671505
        inSlope: 0
        outSlope: 0
        tangentMode: 136
        weightedMode: 0
        inWeight: 0.33333334
        outWeight: 0.33333334
      m_PreInfinity: 2
      m_PostInfinity: 2
      m_RotationOrder: 4
    attribute: m_Color.b
    path: Top_Right_Score_3x3_Txt
    classID: 114
    script: {fileID: 708705254, guid: f70555f144d8491a825f0804e09c671c, type: 3}
  - curve:
      serializedVersion: 2
      m_Curve:
      - serializedVersion: 3
        time: 0
        value: 0
        inSlope: Infinity
        outSlope: Infinity
        tangentMode: 103
        weightedMode: 0
        inWeight: 0
        outWeight: 0
      - serializedVersion: 3
        time: 0.23333333
        value: 1
        inSlope: Infinity
        outSlope: Infinity
        tangentMode: 103
        weightedMode: 0
        inWeight: 0
        outWeight: 0
      - serializedVersion: 3
        time: 2.7333333
        value: 1
        inSlope: Infinity
        outSlope: Infinity
        tangentMode: 103
        weightedMode: 0
        inWeight: 0
        outWeight: 0
      - serializedVersion: 3
        time: 4.866667
        value: 1
        inSlope: Infinity
        outSlope: Infinity
        tangentMode: 103
        weightedMode: 0
        inWeight: 0
        outWeight: 0
      - serializedVersion: 3
        time: 6.133333
        value: 0
        inSlope: Infinity
        outSlope: Infinity
        tangentMode: 103
        weightedMode: 0
        inWeight: 0
        outWeight: 0
      m_PreInfinity: 2
      m_PostInfinity: 2
      m_RotationOrder: 4
    attribute: m_Enabled
    path: Top_Right_Score_3x3_Txt
    classID: 114
    script: {fileID: 708705254, guid: f70555f144d8491a825f0804e09c671c, type: 3}
  - curve:
      serializedVersion: 2
      m_Curve:
      - serializedVersion: 3
        time: 0
        value: 0
        inSlope: Infinity
        outSlope: Infinity
        tangentMode: 103
        weightedMode: 0
        inWeight: 0
        outWeight: 0
      - serializedVersion: 3
        time: 0.13333334
        value: 1
        inSlope: Infinity
        outSlope: Infinity
        tangentMode: 103
        weightedMode: 0
        inWeight: 0
        outWeight: 0
      - serializedVersion: 3
        time: 4.866667
        value: 0
        inSlope: Infinity
        outSlope: Infinity
        tangentMode: 103
        weightedMode: 0
        inWeight: 0
        outWeight: 0
      m_PreInfinity: 2
      m_PostInfinity: 2
      m_RotationOrder: 4
    attribute: m_Enabled
    path: Left_Blue_Action_Name_Txt
    classID: 114
    script: {fileID: 708705254, guid: f70555f144d8491a825f0804e09c671c, type: 3}
  - curve:
      serializedVersion: 2
      m_Curve:
      - serializedVersion: 3
        time: 0
        value: 0
        inSlope: Infinity
        outSlope: Infinity
        tangentMode: 103
        weightedMode: 0
        inWeight: 0
        outWeight: 0
      - serializedVersion: 3
        time: 0.13333334
        value: 1
        inSlope: Infinity
        outSlope: Infinity
        tangentMode: 103
        weightedMode: 0
        inWeight: 0
        outWeight: 0
      - serializedVersion: 3
        time: 4.866667
        value: 0
        inSlope: Infinity
        outSlope: Infinity
        tangentMode: 103
        weightedMode: 0
        inWeight: 0
        outWeight: 0
      m_PreInfinity: 2
      m_PostInfinity: 2
      m_RotationOrder: 4
    attribute: m_Enabled
    path: Right_Blue_Action_Name_Txt
    classID: 114
    script: {fileID: 708705254, guid: f70555f144d8491a825f0804e09c671c, type: 3}
  m_EulerEditorCurves: []
  m_HasGenericRootTransform: 0
  m_HasMotionFloatCurves: 0
  m_Events:
  - time: 8
    functionName: AnimEventsManager
    data: Display_Pressure_Indicators
    objectReferenceParameter: {fileID: 0}
    floatParameter: 0
    intParameter: 0
    messageOptions: 0
  - time: 8.066667
    functionName: AnimEventsManager
    data: Long_Display_Win_Score
    objectReferenceParameter: {fileID: 0}
    floatParameter: 0
    intParameter: 0
    messageOptions: 0
  - time: 8.7
    functionName: AnimEventsManager
    data: Transition_To_Part_2
    objectReferenceParameter: {fileID: 0}
    floatParameter: 0
    intParameter: 0
    messageOptions: 0
