%YAML 1.1
%TAG !u! tag:unity3d.com,2011:
--- !u!74 &7400000
AnimationClip:
  m_ObjectHideFlags: 0
  m_CorrespondingSourceObject: {fileID: 0}
  m_PrefabInstance: {fileID: 0}
  m_PrefabAsset: {fileID: 0}
  m_Name: RUFM_Score_Win_Blue_Img_NPC
  serializedVersion: 6
  m_Legacy: 0
  m_Compressed: 0
  m_UseHighQualityCurve: 1
  m_RotationCurves: []
  m_CompressedRotationCurves: []
  m_EulerCurves: []
  m_PositionCurves: []
  m_ScaleCurves: []
  m_FloatCurves:
  - curve:
      serializedVersion: 2
      m_Curve:
      - serializedVersion: 3
        time: 0
        value: 1
        inSlope: Infinity
        outSlope: Infinity
        tangentMode: 103
        weightedMode: 0
        inWeight: 0
        outWeight: 0
      - serializedVersion: 3
        time: 5.9333334
        value: 0
        inSlope: Infinity
        outSlope: Infinity
        tangentMode: 103
        weightedMode: 0
        inWeight: 0
        outWeight: 0
      m_PreInfinity: 2
      m_PostInfinity: 2
      m_RotationOrder: 4
    attribute: m_Enabled
    path: 
    classID: 114
    script: {fileID: -765806418, guid: f70555f144d8491a825f0804e09c671c, type: 3}
  - curve:
      serializedVersion: 2
      m_Curve:
      - serializedVersion: 3
        time: 0
        value: 1
        inSlope: Infinity
        outSlope: Infinity
        tangentMode: 103
        weightedMode: 0
        inWeight: 0
        outWeight: 0
      - serializedVersion: 3
        time: 5.9333334
        value: 0
        inSlope: Infinity
        outSlope: Infinity
        tangentMode: 103
        weightedMode: 0
        inWeight: 0
        outWeight: 0
      m_PreInfinity: 2
      m_PostInfinity: 2
      m_RotationOrder: 4
    attribute: m_Enabled
    path: Score_Txt
    classID: 114
    script: {fileID: 708705254, guid: f70555f144d8491a825f0804e09c671c, type: 3}
  m_PPtrCurves:
  - curve:
    - time: 0
      value: {fileID: 21300000, guid: 90131bd03ca23d04582640e7e5265fc6, type: 3}
    - time: 0.033333335
      value: {fileID: 21300000, guid: 90131bd03ca23d04582640e7e5265fc6, type: 3}
    - time: 0.06666667
      value: {fileID: 21300000, guid: c6e1d6b3605e2494e823ebf84228642e, type: 3}
    - time: 0.1
      value: {fileID: 21300000, guid: c6e1d6b3605e2494e823ebf84228642e, type: 3}
    - time: 0.13333334
      value: {fileID: 21300000, guid: 430abdc0fd9cc4b449b92c247d1a76f1, type: 3}
    - time: 0.16666667
      value: {fileID: 21300000, guid: 430abdc0fd9cc4b449b92c247d1a76f1, type: 3}
    - time: 0.2
      value: {fileID: 21300000, guid: 61f85dfdb7df1b74594c106ffe1f665f, type: 3}
    - time: 0.23333333
      value: {fileID: 21300000, guid: 61f85dfdb7df1b74594c106ffe1f665f, type: 3}
    - time: 0.26666668
      value: {fileID: 21300000, guid: f84400e11c91f2e4e9d0ee3574c39fdf, type: 3}
    - time: 0.3
      value: {fileID: 21300000, guid: f84400e11c91f2e4e9d0ee3574c39fdf, type: 3}
    - time: 0.33333334
      value: {fileID: 21300000, guid: c3801d736fbab9e4a9aa6d3c9b75f498, type: 3}
    - time: 0.36666667
      value: {fileID: 21300000, guid: c3801d736fbab9e4a9aa6d3c9b75f498, type: 3}
    - time: 0.4
      value: {fileID: 21300000, guid: 91c28fcc91a00ad4b9ad3648bc7f16ba, type: 3}
    - time: 0.43333334
      value: {fileID: 21300000, guid: 91c28fcc91a00ad4b9ad3648bc7f16ba, type: 3}
    - time: 0.46666667
      value: {fileID: 21300000, guid: 2e6cd1503fd5eed449729822a148813f, type: 3}
    - time: 0.5
      value: {fileID: 21300000, guid: 2e6cd1503fd5eed449729822a148813f, type: 3}
    - time: 0.53333336
      value: {fileID: 21300000, guid: 07383caa11fbc4c4cb087306c88552a9, type: 3}
    - time: 0.56666666
      value: {fileID: 21300000, guid: 07383caa11fbc4c4cb087306c88552a9, type: 3}
    - time: 0.6
      value: {fileID: 21300000, guid: 9dc2bd18ffb9e9849ad34266814e90bc, type: 3}
    - time: 0.6333333
      value: {fileID: 21300000, guid: 9dc2bd18ffb9e9849ad34266814e90bc, type: 3}
    - time: 0.6666667
      value: {fileID: 21300000, guid: 360eb0951a9ae884e85319cb8a058676, type: 3}
    - time: 0.7
      value: {fileID: 21300000, guid: 360eb0951a9ae884e85319cb8a058676, type: 3}
    - time: 0.73333335
      value: {fileID: 21300000, guid: ce3bb45b8f373ff489e4a1ebf10b8685, type: 3}
    - time: 0.76666665
      value: {fileID: 21300000, guid: ce3bb45b8f373ff489e4a1ebf10b8685, type: 3}
    - time: 0.8
      value: {fileID: 21300000, guid: f8ce996dba5e4384ea896088edbc952c, type: 3}
    - time: 0.8333333
      value: {fileID: 21300000, guid: f8ce996dba5e4384ea896088edbc952c, type: 3}
    - time: 0.8666667
      value: {fileID: 21300000, guid: f3408dd8379f8f841bace76a21530456, type: 3}
    - time: 0.9
      value: {fileID: 21300000, guid: f3408dd8379f8f841bace76a21530456, type: 3}
    - time: 0.93333334
      value: {fileID: 21300000, guid: b5029321ffa7493429aff74e2c566f98, type: 3}
    - time: 0.96666664
      value: {fileID: 21300000, guid: 86e4c96d621e098488820cd0de36c2b1, type: 3}
    - time: 1
      value: {fileID: 21300000, guid: 8522d085f0c2fcc4e8d127d995e49041, type: 3}
    - time: 1.0333333
      value: {fileID: 21300000, guid: 6d22389c933ec3f41b9eec4449592808, type: 3}
    - time: 1.0666667
      value: {fileID: 21300000, guid: e8c417869e8da5d44a9f43c13cd0eb3d, type: 3}
    - time: 1.1
      value: {fileID: 21300000, guid: 86a05cfebbfd51540b19fb62a1ae11fc, type: 3}
    - time: 1.1333333
      value: {fileID: 21300000, guid: 327dfd65d7fe4e44798dcfca1c8574e2, type: 3}
    - time: 1.1666666
      value: {fileID: 21300000, guid: 7c3347228e4cc464fb0fb3e1ae0b3d48, type: 3}
    - time: 1.2
      value: {fileID: 21300000, guid: ebb3752b05053ef458c6bbf26d00a20b, type: 3}
    - time: 1.2333333
      value: {fileID: 21300000, guid: 1d84cbe77baca6d44adf7eabb244b18c, type: 3}
    - time: 1.2666667
      value: {fileID: 21300000, guid: 8bd9bf496aeb7f3489646ceea318e5d7, type: 3}
    - time: 5.9333334
      value: {fileID: 21300000, guid: 536390d12b2a70d4693ce8832ee7eb0f, type: 3}
    - time: 5.9666667
      value: {fileID: 21300000, guid: 9590768ba5a84d64b844fec490a7e079, type: 3}
    - time: 6
      value: {fileID: 21300000, guid: 965f137b6e8b39d468d26b9b5997c2dd, type: 3}
    attribute: m_Sprite
    path: 
    classID: 114
    script: {fileID: -765806418, guid: f70555f144d8491a825f0804e09c671c, type: 3}
  m_SampleRate: 30
  m_WrapMode: 0
  m_Bounds:
    m_Center: {x: 0, y: 0, z: 0}
    m_Extent: {x: 0, y: 0, z: 0}
  m_ClipBindingConstant:
    genericBindings:
    - serializedVersion: 2
      path: 0
      attribute: 3305885265
      script: {fileID: -765806418, guid: f70555f144d8491a825f0804e09c671c, type: 3}
      typeID: 114
      customType: 24
      isPPtrCurve: 0
    - serializedVersion: 2
      path: 3508632061
      attribute: 3305885265
      script: {fileID: 708705254, guid: f70555f144d8491a825f0804e09c671c, type: 3}
      typeID: 114
      customType: 24
      isPPtrCurve: 0
    - serializedVersion: 2
      path: 0
      attribute: 2015549526
      script: {fileID: -765806418, guid: f70555f144d8491a825f0804e09c671c, type: 3}
      typeID: 114
      customType: 0
      isPPtrCurve: 1
    pptrCurveMapping:
    - {fileID: 21300000, guid: 90131bd03ca23d04582640e7e5265fc6, type: 3}
    - {fileID: 21300000, guid: 90131bd03ca23d04582640e7e5265fc6, type: 3}
    - {fileID: 21300000, guid: c6e1d6b3605e2494e823ebf84228642e, type: 3}
    - {fileID: 21300000, guid: c6e1d6b3605e2494e823ebf84228642e, type: 3}
    - {fileID: 21300000, guid: 430abdc0fd9cc4b449b92c247d1a76f1, type: 3}
    - {fileID: 21300000, guid: 430abdc0fd9cc4b449b92c247d1a76f1, type: 3}
    - {fileID: 21300000, guid: 61f85dfdb7df1b74594c106ffe1f665f, type: 3}
    - {fileID: 21300000, guid: 61f85dfdb7df1b74594c106ffe1f665f, type: 3}
    - {fileID: 21300000, guid: f84400e11c91f2e4e9d0ee3574c39fdf, type: 3}
    - {fileID: 21300000, guid: f84400e11c91f2e4e9d0ee3574c39fdf, type: 3}
    - {fileID: 21300000, guid: c3801d736fbab9e4a9aa6d3c9b75f498, type: 3}
    - {fileID: 21300000, guid: c3801d736fbab9e4a9aa6d3c9b75f498, type: 3}
    - {fileID: 21300000, guid: 91c28fcc91a00ad4b9ad3648bc7f16ba, type: 3}
    - {fileID: 21300000, guid: 91c28fcc91a00ad4b9ad3648bc7f16ba, type: 3}
    - {fileID: 21300000, guid: 2e6cd1503fd5eed449729822a148813f, type: 3}
    - {fileID: 21300000, guid: 2e6cd1503fd5eed449729822a148813f, type: 3}
    - {fileID: 21300000, guid: 07383caa11fbc4c4cb087306c88552a9, type: 3}
    - {fileID: 21300000, guid: 07383caa11fbc4c4cb087306c88552a9, type: 3}
    - {fileID: 21300000, guid: 9dc2bd18ffb9e9849ad34266814e90bc, type: 3}
    - {fileID: 21300000, guid: 9dc2bd18ffb9e9849ad34266814e90bc, type: 3}
    - {fileID: 21300000, guid: 360eb0951a9ae884e85319cb8a058676, type: 3}
    - {fileID: 21300000, guid: 360eb0951a9ae884e85319cb8a058676, type: 3}
    - {fileID: 21300000, guid: ce3bb45b8f373ff489e4a1ebf10b8685, type: 3}
    - {fileID: 21300000, guid: ce3bb45b8f373ff489e4a1ebf10b8685, type: 3}
    - {fileID: 21300000, guid: f8ce996dba5e4384ea896088edbc952c, type: 3}
    - {fileID: 21300000, guid: f8ce996dba5e4384ea896088edbc952c, type: 3}
    - {fileID: 21300000, guid: f3408dd8379f8f841bace76a21530456, type: 3}
    - {fileID: 21300000, guid: f3408dd8379f8f841bace76a21530456, type: 3}
    - {fileID: 21300000, guid: b5029321ffa7493429aff74e2c566f98, type: 3}
    - {fileID: 21300000, guid: 86e4c96d621e098488820cd0de36c2b1, type: 3}
    - {fileID: 21300000, guid: 8522d085f0c2fcc4e8d127d995e49041, type: 3}
    - {fileID: 21300000, guid: 6d22389c933ec3f41b9eec4449592808, type: 3}
    - {fileID: 21300000, guid: e8c417869e8da5d44a9f43c13cd0eb3d, type: 3}
    - {fileID: 21300000, guid: 86a05cfebbfd51540b19fb62a1ae11fc, type: 3}
    - {fileID: 21300000, guid: 327dfd65d7fe4e44798dcfca1c8574e2, type: 3}
    - {fileID: 21300000, guid: 7c3347228e4cc464fb0fb3e1ae0b3d48, type: 3}
    - {fileID: 21300000, guid: ebb3752b05053ef458c6bbf26d00a20b, type: 3}
    - {fileID: 21300000, guid: 1d84cbe77baca6d44adf7eabb244b18c, type: 3}
    - {fileID: 21300000, guid: 8bd9bf496aeb7f3489646ceea318e5d7, type: 3}
    - {fileID: 21300000, guid: 536390d12b2a70d4693ce8832ee7eb0f, type: 3}
    - {fileID: 21300000, guid: 9590768ba5a84d64b844fec490a7e079, type: 3}
    - {fileID: 21300000, guid: 965f137b6e8b39d468d26b9b5997c2dd, type: 3}
  m_AnimationClipSettings:
    serializedVersion: 2
    m_AdditiveReferencePoseClip: {fileID: 0}
    m_AdditiveReferencePoseTime: 0
    m_StartTime: 0
    m_StopTime: 6.0333333
    m_OrientationOffsetY: 0
    m_Level: 0
    m_CycleOffset: 0
    m_HasAdditiveReferencePose: 0
    m_LoopTime: 0
    m_LoopBlend: 0
    m_LoopBlendOrientation: 0
    m_LoopBlendPositionY: 0
    m_LoopBlendPositionXZ: 0
    m_KeepOriginalOrientation: 0
    m_KeepOriginalPositionY: 1
    m_KeepOriginalPositionXZ: 0
    m_HeightFromFeet: 0
    m_Mirror: 0
  m_EditorCurves:
  - curve:
      serializedVersion: 2
      m_Curve:
      - serializedVersion: 3
        time: 0
        value: 1
        inSlope: Infinity
        outSlope: Infinity
        tangentMode: 103
        weightedMode: 0
        inWeight: 0
        outWeight: 0
      - serializedVersion: 3
        time: 5.9333334
        value: 0
        inSlope: Infinity
        outSlope: Infinity
        tangentMode: 103
        weightedMode: 0
        inWeight: 0
        outWeight: 0
      m_PreInfinity: 2
      m_PostInfinity: 2
      m_RotationOrder: 4
    attribute: m_Enabled
    path: 
    classID: 114
    script: {fileID: -765806418, guid: f70555f144d8491a825f0804e09c671c, type: 3}
  - curve:
      serializedVersion: 2
      m_Curve:
      - serializedVersion: 3
        time: 0
        value: 1
        inSlope: Infinity
        outSlope: Infinity
        tangentMode: 103
        weightedMode: 0
        inWeight: 0
        outWeight: 0
      - serializedVersion: 3
        time: 5.9333334
        value: 0
        inSlope: Infinity
        outSlope: Infinity
        tangentMode: 103
        weightedMode: 0
        inWeight: 0
        outWeight: 0
      m_PreInfinity: 2
      m_PostInfinity: 2
      m_RotationOrder: 4
    attribute: m_Enabled
    path: Score_Txt
    classID: 114
    script: {fileID: 708705254, guid: f70555f144d8491a825f0804e09c671c, type: 3}
  m_EulerEditorCurves: []
  m_HasGenericRootTransform: 0
  m_HasMotionFloatCurves: 0
  m_Events:
  - time: 6
    functionName: AnimEventsManager
    data: Disable_Image_Text
    objectReferenceParameter: {fileID: 0}
    floatParameter: 0
    intParameter: 0
    messageOptions: 0
