%YAML 1.1
%TAG !u! tag:unity3d.com,2011:
--- !u!21 &2100000
Material:
  serializedVersion: 6
  m_ObjectHideFlags: 0
  m_CorrespondingSourceObject: {fileID: 0}
  m_PrefabInstance: {fileID: 0}
  m_PrefabAsset: {fileID: 0}
  m_Name: Mat_ArrivalPlayer_Plane
  m_Shader: {fileID: 4800000, guid: 2e1777b7e8e2ba048a8f04dafb68c1c5, type: 3}
  m_ShaderKeywords: 
  m_LightmapFlags: 4
  m_EnableInstancingVariants: 0
  m_DoubleSidedGI: 0
  m_CustomRenderQueue: -1
  stringTagMap: {}
  disabledShaderPasses: []
  m_SavedProperties:
    serializedVersion: 3
    m_TexEnvs:
    - _BumpMap:
        m_Texture: {fileID: 0}
        m_Scale: {x: 1, y: 1}
        m_Offset: {x: 0, y: 0}
    - _EmissionMap:
        m_Texture: {fileID: 0}
        m_Scale: {x: 1, y: 1}
        m_Offset: {x: 0, y: 0}
    - _MainTex:
        m_Texture: {fileID: 0}
        m_Scale: {x: 1, y: 1}
        m_Offset: {x: 0, y: 0}
    - _MetallicGlossMap:
        m_Texture: {fileID: 0}
        m_Scale: {x: 1, y: 1}
        m_Offset: {x: 0, y: 0}
    - _OcclusionMap:
        m_Texture: {fileID: 0}
        m_Scale: {x: 1, y: 1}
        m_Offset: {x: 0, y: 0}
    - _SampleTexture2D_207ABB8F_Texture:
        m_Texture: {fileID: 2800000, guid: ad4a144865f6c8f4c86a25bd81c10354, type: 3}
        m_Scale: {x: 1, y: 1}
        m_Offset: {x: 0, y: 0}
    - _SampleTexture2D_2B0E5682_Texture:
        m_Texture: {fileID: 2800000, guid: ad4a144865f6c8f4c86a25bd81c10354, type: 3}
        m_Scale: {x: 1, y: 1}
        m_Offset: {x: 0, y: 0}
    - _SampleTexture2D_31D5EFBB_Texture:
        m_Texture: {fileID: 2800000, guid: ad4a144865f6c8f4c86a25bd81c10354, type: 3}
        m_Scale: {x: 1, y: 1}
        m_Offset: {x: 0, y: 0}
    - _SampleTexture2D_49A262A4_Texture:
        m_Texture: {fileID: 2800000, guid: ad4a144865f6c8f4c86a25bd81c10354, type: 3}
        m_Scale: {x: 1, y: 1}
        m_Offset: {x: 0, y: 0}
    - _SampleTexture2D_4FF6B555_Texture:
        m_Texture: {fileID: 2800000, guid: ad4a144865f6c8f4c86a25bd81c10354, type: 3}
        m_Scale: {x: 1, y: 1}
        m_Offset: {x: 0, y: 0}
    - _SampleTexture2D_5B2DF52E_Texture:
        m_Texture: {fileID: 2800000, guid: ad4a144865f6c8f4c86a25bd81c10354, type: 3}
        m_Scale: {x: 1, y: 1}
        m_Offset: {x: 0, y: 0}
    - _SampleTexture2D_5F98E7E5_Texture:
        m_Texture: {fileID: 2800000, guid: ad4a144865f6c8f4c86a25bd81c10354, type: 3}
        m_Scale: {x: 1, y: 1}
        m_Offset: {x: 0, y: 0}
    - _SampleTexture2D_60B580BB_Texture:
        m_Texture: {fileID: 2800000, guid: ad4a144865f6c8f4c86a25bd81c10354, type: 3}
        m_Scale: {x: 1, y: 1}
        m_Offset: {x: 0, y: 0}
    - _SampleTexture2D_69BD3D3A_Texture:
        m_Texture: {fileID: 2800000, guid: ad4a144865f6c8f4c86a25bd81c10354, type: 3}
        m_Scale: {x: 1, y: 1}
        m_Offset: {x: 0, y: 0}
    - _SampleTexture2D_7A83D27A_Texture:
        m_Texture: {fileID: 2800000, guid: ad4a144865f6c8f4c86a25bd81c10354, type: 3}
        m_Scale: {x: 1, y: 1}
        m_Offset: {x: 0, y: 0}
    - _SampleTexture2D_7C6811CE_Texture:
        m_Texture: {fileID: 2800000, guid: ad4a144865f6c8f4c86a25bd81c10354, type: 3}
        m_Scale: {x: 1, y: 1}
        m_Offset: {x: 0, y: 0}
    - _SampleTexture2D_A522D426_Texture:
        m_Texture: {fileID: 2800000, guid: ad4a144865f6c8f4c86a25bd81c10354, type: 3}
        m_Scale: {x: 1, y: 1}
        m_Offset: {x: 0, y: 0}
    - _SampleTexture2D_AF3F8E91_Texture:
        m_Texture: {fileID: 2800000, guid: ad4a144865f6c8f4c86a25bd81c10354, type: 3}
        m_Scale: {x: 1, y: 1}
        m_Offset: {x: 0, y: 0}
    - _SampleTexture2D_CCF6EA2F_Texture:
        m_Texture: {fileID: 2800000, guid: ad4a144865f6c8f4c86a25bd81c10354, type: 3}
        m_Scale: {x: 1, y: 1}
        m_Offset: {x: 0, y: 0}
    - _SpecGlossMap:
        m_Texture: {fileID: 0}
        m_Scale: {x: 1, y: 1}
        m_Offset: {x: 0, y: 0}
    - _Texture2DAsset_E0915D9C_Out:
        m_Texture: {fileID: 2800000, guid: ad4a144865f6c8f4c86a25bd81c10354, type: 3}
        m_Scale: {x: 1, y: 1}
        m_Offset: {x: 0, y: 0}
    m_Floats:
    - _AlphaClip: 0
    - _Blend: 0
    - _BumpScale: 1
    - _Cull: 2
    - _Cutoff: 0.5
    - _DstBlend: 0
    - _GlossMapScale: 1
    - _Glossiness: 0.5
    - _GlossyReflections: 1
    - _Metallic: 0
    - _OcclusionStrength: 1
    - _ReceiveShadows: 1
    - _SmoothnessTextureChannel: 0
    - _SpecularHighlights: 1
    - _SrcBlend: 1
    - _Surface: 0
    - _WorkflowMode: 1
    - _ZWrite: 1
    - _fade: 0
    m_Colors:
    - _Color: {r: 0.5, g: 0.5, b: 0.5, a: 1}
    - _ColorFX: {r: 0, g: 1, b: 0.9587309, a: 0}
    - _EmissionColor: {r: 0, g: 0, b: 0, a: 1}
    - _SpecColor: {r: 0.2, g: 0.2, b: 0.2, a: 1}
