%YAML 1.1
%TAG !u! tag:unity3d.com,2011:
--- !u!114 &11400000
MonoBehaviour:
  m_ObjectHideFlags: 0
  m_CorrespondingSourceObject: {fileID: 0}
  m_PrefabInstance: {fileID: 0}
  m_PrefabAsset: {fileID: 0}
  m_GameObject: {fileID: 0}
  m_Enabled: 1
  m_EditorHideFlags: 0
  m_Script: {fileID: 11500000, guid: 9f3758f8f58fdef43803eb9be1df0608, type: 3}
  m_Name: PhotonServerSettings
  m_EditorClassIdentifier: 
  AppSettings:
    AppIdRealtime: 92b1ba6d-16ec-4731-a2ac-37e314ca3ad4
    AppIdChat: 
    AppIdVoice: 
    AppVersion: 1.0.1
    UseNameServer: 0
    FixedRegion: 
    Server: 35.178.207.216
    Port: 5055
    Protocol: 0
    EnableLobbyStatistics: 0
    NetworkLogging: 5
  StartInOfflineMode: 0
  PunLogging: 2
  EnableSupportLogger: 0
  RunInBackground: 1
  RpcList:
  - RPC_AddEvent
  - RPC_All_ExecuteNextGameplayState
  - RPC_CancelDelayedAction
  - RPC_ClearHistory
  - RPC_DisplaySentence
  - RPC_EarnSoftCurrency
  - RPC_ExecuteInstantAction
  - RPC_LoadGameplay
  - RPC_Master_InformClientReady
  - RPC_NeedFullSynchronization
  - RPC_OnActionCanceled
  - RPC_OnDelayedActionExecuted
  - RPC_OnEngineStartPeriod
  - RPC_OnEngineStopPeriod
  - RPC_OnInstantActionExecuted
  - RPC_OnManagerPrepareAction
  - RPC_OnOppositionChanged
  - RPC_OnOppositionComputed
  - RPC_OnPhasesChanged
  - RPC_OnPickerSelected
  - RPC_OnSequenceStarted
  - RPC_OnSkillApplied
  - RPC_OnSkillRemoved
  - RPC_OnTimerFinished
  - RPC_OnTimerReset
  - RPC_OnTimerStarted
  - RPC_OnTimerStopped
  - RPC_OnTossPerformed
  - RPC_OnTossSideSelected
  - RPC_PingClient
  - RPC_PingMaster
  - RPC_PrepareAction
  - RPC_SetTimeScale
  - RPC_SynchronizationReceived
  - RPC_SynchronizationRequested
  - RPC_Synchronize
  - RPC_ReceiveSynchronizationResponse
  - RPC_RequestSynchronization
  - RPC_ReceiveSynchronization
  - RPC_SetActionsPoints
  - RPC_StartActionsPointsGeneration
  - RPC_StopActionsPointsGeneration
  - RPC_GenerateNewActionPoint
  - RPC_OnFieldSetupChanged
  - RPC_OnPhaseChanged
  - RPC_OnEngineChangeFieldSetup
  - RPC_OnEngineChangePhase
  - RPC_OnEngineExecuteActions
  - RPC_ManagerIsReady
  - RPC_ManagerJoinRoomWithTeam
  - RPC_EngineIsReady
  - RPC_EndedPhase
  - RPC_ManagerIsReadyToChangePhase
  - RPC_ManagerSyncIsDone
  - RPC_TimerHasEllapsed
  - RPC_OnManagerReadyToChangePeriod
  - RPC_SkipTacticalPhase
  - RPC_ReadyForToss
  - RPC_ManagerIsDisconnected
  - RPC_IsWaitingManager
  - RPC_ManagerIsReconnected
  - RPC_NeedToSyncAllData
  - RPC_SynchronizeAllData
  - RPC_NeedToChangePeriod
  DisableAutoOpenWizard: 1
