%YAML 1.1
%TAG !u! tag:unity3d.com,2011:
--- !u!114 &11400000
MonoBehaviour:
  m_ObjectHideFlags: 0
  m_CorrespondingSourceObject: {fileID: 0}
  m_PrefabInstance: {fileID: 0}
  m_PrefabAsset: {fileID: 0}
  m_GameObject: {fileID: 0}
  m_Enabled: 1
  m_EditorHideFlags: 0
  m_Script: {fileID: 11500000, guid: 9847715813ec6499c96f643979f8fef5, type: 3}
  m_Name: Store-PlayerLastGame
  m_EditorClassIdentifier: 
  _skills:
    _goals: 0
    _penaltySave: 0
    _goalAssist: 0
    _accuratePassTr3: 0
    _minsPlayed1: 0
    _tackle: 0
    _saves: 0
    _ballRecovery: 0
    _interception: 0
    _keyPass: 0
    _wonContest: 0
    _accurateCrossNocorner: 0
    _goalsConcOnfield: 0
    _totalOffside: 0
    _shotOffTarget: 0
    _fouls: 0
    _dispossessed: 0
    _bigChanceMissed: 0
    _yellowCard: 0
    _redCard: 0
    _noMinsPlayed: 0
  _gameData:
    _date: 
    _championshipName: 
    _teamAName: 
    _teamBName: 
  _realPoint: 0
  _realPointGlobal: 0
