%YAML 1.1
%TAG !u! tag:unity3d.com,2011:
--- !u!114 &11400000
MonoBehaviour:
  m_ObjectHideFlags: 0
  m_CorrespondingSourceObject: {fileID: 0}
  m_PrefabInstance: {fileID: 0}
  m_PrefabAsset: {fileID: 0}
  m_GameObject: {fileID: 0}
  m_Enabled: 1
  m_EditorHideFlags: 0
  m_Script: {fileID: 11500000, guid: 5a76b06d183684a7688cd99c8911214a, type: 3}
  m_Name: Store-LeaderboardArenaCup
  m_EditorClassIdentifier: 
  _leaderboardScoreData:
  - _rank: 1
    _username: victor
    _score: 10
    _realPoint: 1698
    _arenaCup: 
    _gamesPlayed: 71
    _gamesWon: 24
    _gamesLost: 0
    _gamesDraw: 48
    _ratioGamesWon: 33
    _goalsScored: 26
    _goalsConceded: 1
  - _rank: 2
    _username: maddy
    _score: 10
    _realPoint: 1698
    _arenaCup: 
    _gamesPlayed: 442
    _gamesWon: 144
    _gamesLost: 22
    _gamesDraw: 280
    _ratioGamesWon: 32
    _goalsScored: 187
    _goalsConceded: 62
  _limit: 8
