%YAML 1.1
%TAG !u! tag:unity3d.com,2011:
--- !u!114 &11400000
MonoBehaviour:
  m_ObjectHideFlags: 0
  m_CorrespondingSourceObject: {fileID: 0}
  m_PrefabInstance: {fileID: 0}
  m_PrefabAsset: {fileID: 0}
  m_GameObject: {fileID: 0}
  m_Enabled: 1
  m_EditorHideFlags: 0
  m_Script: {fileID: 11500000, guid: 09c707a3ea29442c78c1aee4c9e81acc, type: 3}
  m_Name: Store-Players
  m_EditorClassIdentifier: 
  _items: []
  _metas:
    _totalCount: 0
    _offset: 0
