%YAML 1.1
%TAG !u! tag:unity3d.com,2011:
--- !u!114 &11400000
MonoBehaviour:
  m_ObjectHideFlags: 0
  m_CorrespondingSourceObject: {fileID: 0}
  m_PrefabInstance: {fileID: 0}
  m_PrefabAsset: {fileID: 0}
  m_GameObject: {fileID: 0}
  m_Enabled: 1
  m_EditorHideFlags: 0
  m_Script: {fileID: 11500000, guid: 9f3758f8f58fdef43803eb9be1df0608, type: 3}
  m_Name: PhotonServerSettings
  m_EditorClassIdentifier: 
  AppSettings:
    AppIdRealtime: 
    AppIdChat: 
    AppIdVoice: 
    AppVersion: 
    UseNameServer: 1
    FixedRegion: 
    Server: 
    Port: 0
    Protocol: 0
    EnableLobbyStatistics: 0
    NetworkLogging: 1
  StartInOfflineMode: 0
  PunLogging: 0
  EnableSupportLogger: 0
  RunInBackground: 1
  RpcList:
  - RPC_AddEvent
  - RPC_ClearHistory
  - RPC_DisplaySentence
  - RPC_EndedPhase
  - RPC_IsWaitingManager
  - RPC_LoadGameplay
  - RPC_ManagerIsDisconnected
  - RPC_ManagerIsReady
  - RPC_ManagerIsReadyToChangePhase
  - RPC_ManagerIsReconnected
  - RPC_ManagerJoinRoomWithTeam
  - RPC_ManagerSyncIsDone
  - RPC_NeedFullSynchronization
  - RPC_NeedToChangePeriod
  - RPC_NeedToSyncAllData
  - RPC_OnEngineChangeFieldSetup
  - RPC_OnEngineChangePhase
  - RPC_OnEngineStartPeriod
  - RPC_OnEngineStopPeriod
  - RPC_OnManagerReadyToChangePeriod
  - RPC_PingClient
  - RPC_PingMaster
  - RPC_PrepareAction
  - RPC_ReadyForToss
  - RPC_SetTimeScale
  - RPC_SkipTacticalPhase
  - RPC_Synchronize
  - RPC_SynchronizeAllData
  - RPC_TimerHasEllapsed
  DisableAutoOpenWizard: 1
