%YAML 1.1
%TAG !u! tag:unity3d.com,2011:
--- !u!114 &11400000
MonoBehaviour:
  m_ObjectHideFlags: 0
  m_CorrespondingSourceObject: {fileID: 0}
  m_PrefabInstance: {fileID: 0}
  m_PrefabAsset: {fileID: 0}
  m_GameObject: {fileID: 0}
  m_Enabled: 1
  m_EditorHideFlags: 0
  m_Script: {fileID: 11500000, guid: b2e6ae044cb594b41b5c2a313999f22f, type: 3}
  m_Name: TeamBActionPoints
  m_EditorClassIdentifier: 
  CurrentValue:
    Points: 0
    FillAmount: 0
  _defaultValue:
    Points: 0
    FillAmount: 0
