%YAML 1.1
%TAG !u! tag:unity3d.com,2011:
--- !u!114 &11400000
MonoBehaviour:
  m_ObjectHideFlags: 0
  m_PrefabParentObject: {fileID: 0}
  m_PrefabInternal: {fileID: 0}
  m_GameObject: {fileID: 0}
  m_Enabled: 1
  m_EditorHideFlags: 0
  m_Script: {fileID: 11500000, guid: 988c36516b36c48b8a42f97be5d6c054, type: 3}
  m_Name: UserData
  m_EditorClassIdentifier: 
  _statusCode: 
  _team: 
  _redirectToCodeScreen: 0
  _isDeviceIdExists: 0
  _pvpRoomName: 
  _accessToken: 
  _refreshToken: 
  _refreshTokenExpiredAt: 0
  _profile:
    _id: 0
    _username: 
    _email: 
    _facebookId: 
    _fbToken: 
    _androidId: 
    _iOSId: 
    _gamePlayerId: 
    _deviceId: 
    _device2Id: 
    _device3Id: 
    _associativeCode: 
    _associativeCodeExpiredAt: 
    _deviceIdToAssociate: 
    _ip: 
    _fullname: 
    _xp: 0
    _balance: 
    _hard: 0
    _soft: 
    _third: 0
    _nbGamesPlayed: 0
    _nbGamesWon: 0
    _nbGamesWonRatio: 0
    _nbGamesLost: 0
    _nbGamesDraw: 0
    _nbGoalsScored: 0
    _nbGoalsConceded: 0
    _nbRealPurchase: 0
    _isVip: 0
    _level: 1
    _starLevel: 0
    _starLevelUp: 0
    _rank: 0
    _iosIsDisplayed: 0
    _challengesExplained: 0
  _pvpTeam: 1
