%YAML 1.1
%TAG !u! tag:unity3d.com,2011:
--- !u!78 &1
TagManager:
  serializedVersion: 2
  tags:
  - TeamB
  - TeamA
  - Chat
  - Minions_Anchor_Points
  - Fog_Of_War
  - Minions_Meshs
  - BOT
  - RI_Elements
  - Foreground_Btn
  - Disposable
  - Player_Team_Minions
  - Resolutions_Manager_Grp
  - Pooling
  - Removable
  layers:
  - Default
  - TransparentFX
  - Ignore Raycast
  - 
  - Water
  - UI
  - 
  - 
  - Field
  - 
  - 
  - 
  - 
  - 
  - 
  - 
  - 
  - 
  - 
  - 
  - 
  - 
  - 
  - 
  - 
  - 
  - 
  - 
  - 
  - 
  - 
  - 
  m_SortingLayers:
  - name: Default
    uniqueID: 0
    locked: 0
  - name: Card
    uniqueID: 3202262007
    locked: 0
  - name: CardInfos
    uniqueID: 1424465283
    locked: 0
  - name: Target
    uniqueID: 3849009715
    locked: 0
