%YAML 1.1
%TAG !u! tag:unity3d.com,2011:
--- !u!114 &11400000
MonoBehaviour:
  m_ObjectHideFlags: 0
  m_CorrespondingSourceObject: {fileID: 0}
  m_PrefabInstance: {fileID: 0}
  m_PrefabAsset: {fileID: 0}
  m_GameObject: {fileID: 0}
  m_Enabled: 1
  m_EditorHideFlags: 0
  m_Script: {fileID: 11500000, guid: 2973335b8af3c409ea7c4b6dd3181915, type: 3}
  m_Name: Resolution_Pass_Case_2_A
  m_EditorClassIdentifier: 
  TeamManager: 1
  TossWinner: 1
  InitFieldSetup: FS_A_TEST_DUEL_DUEL
  InitPossessionPos: 18
  TacticalPhases:
  - TeamAChoices: []
    TeamBChoices: []
  - TeamAChoices: []
    TeamBChoices:
    - Action: 14
      Position: 16
      Direction: 8
      Distance: 1
      WinsCase: 1
  - TeamAChoices: []
    TeamBChoices:
    - Action: 14
      Position: 27
      Direction: 4
      Distance: 1
      WinsCase: 1
  - TeamAChoices: []
    TeamBChoices:
    - Action: 14
      Position: 15
      Direction: 4
      Distance: 1
      WinsCase: 1
  - TeamAChoices: []
    TeamBChoices:
    - Action: 14
      Position: 25
      Direction: 4
      Distance: 1
      WinsCase: 1
  ActionPhases:
  - TeamAChoice:
      Action: 11
      TargetPosition: 27
      Position: 18
      Direction: 0
      Distance: 0
      WinsCase: 0
    TeamBChoice:
      Action: 12
      TargetPosition: 0
      Position: 16
      Direction: 0
      Distance: 0
      WinsCase: 0
    DuelWinner: 1
    ResolutionWinningTeam: 2
    ResolutionWinningPosition: 6
    ResolutionDuelOpponentOpposition: 0
  CounterTacticalPhase: 2
  CounterActionPhase: 0
