%YAML 1.1
%TAG !u! tag:unity3d.com,2011:
--- !u!114 &11400000
MonoBehaviour:
  m_ObjectHideFlags: 0
  m_CorrespondingSourceObject: {fileID: 0}
  m_PrefabInstance: {fileID: 0}
  m_PrefabAsset: {fileID: 0}
  m_GameObject: {fileID: 0}
  m_Enabled: 1
  m_EditorHideFlags: 0
  m_Script: {fileID: 11500000, guid: 2973335b8af3c409ea7c4b6dd3181915, type: 3}
  m_Name: Resolution_Duel_Case_2_B
  m_EditorClassIdentifier: 
  TeamManager: 1
  TossWinner: 2
  InitFieldSetup: FS_B_TEST_DUEL_DUEL
  InitPossessionPos: 18
  TacticalPhases:
  - TeamAChoices: []
    TeamBChoices: []
  - TeamAChoices: []
    TeamBChoices: []
  ActionPhases:
  - TeamAChoice:
      Action: 12
      Position: 16
      TargetPosition: 0
      Direction: 0
      WinsCase: 0
    TeamBChoice:
      Action: 6
      Position: 18
      TargetPosition: 16
      Direction: 0
      WinsCase: 0
    DuelWinner: 1
    ResolutionWinningTeam: 1
    ResolutionWinningPosition: 16
    ResolutionDuelOpponentOpposition: 0
  CounterTacticalPhase: 0
  CounterActionPhase: 0
